"","BASELINE DEMOGRAPHICS","..2","..3","..4","HOUSEHOLD DEMOGRAPHICS","..6","..7","..8","WASH INFORMATION","..10","..11","..12","..13","..14","BREASTFEEDING AND FORMULA IF CHILD 0-6 MONTHS","..16","..17","..18","..19","..20","..21","..22","..23","BREASTFEEDING AND FORMULA IF CHILD 6-23 MTHS","..25","..26","..27","..28","..29","..30","..31","..32","..33","..34","BASELINE NUTRITIONAL DATA","..36","..37","..38","..39","..40","..41","..42","..43","..44","..45","..46","..47","..48","..49","..50","..51","..52","..53","..54","..55","..56","..57","..58","..59","..60","NUTRITION DATA 1 MONTH","..62","..63","..64","..65","..66","..67","..68","..69","..70","..71","..72","..73","..74","..75","..76","..77","..78","..79","..80","..81","..82","..83","..84","..85","..86","NUTRITION DATA 2 MONTH","..88","..89","..90","..91","..92","..93","..94","..95","..96","..97","..98","..99","..100","..101","..102","..103","..104","..105","..106","..107","..108","..109","..110","..111","..112","NUTRITION DATA 3 MONTH","..114","..115","..116","..117","..118","..119","..120","..121","..122","..123","..124","..125","..126","..127","..128","..129","..130","..131","..132","..133","..134","..135","..136","..137","..138"
"1","Date","area","ID","DOB","HHSIZE","SIBLING_NO","INCOME","MAT_ED","CLEAN H20","TOILET","HANDWASH_T","HANDWASH_F","H_ED_DIAR","HANDWASH_SEEN","BFEED_YN","BFEED_Q","FORMULA_YN","FORMULA_BRAND","FORMULA_PREP","FORMULA_Q","OTHERLIQS_YN","OTHERLIQS_LIST","HED_WEAN_YN","BFEED_YN","BFEED_Q","FORMULA_YN","FORMULA_BRAND","FORMULA_PREP","FORMULA_Q","OTHERLIQS_YN","OTHERLIQS_LIST","OTHERFOOD_YN","HED_BFEED_YN","HED_WEAN_YN","MEALS/DAY","PLATE_PIC","DAL_YN","DAL_Q","BREAD_YN","BREAD_Q","RICE_YN","RICE_Q","DAIRY_YN","DAIRY_Q","MEAT_YN","MEAT_Q","EGGS_YN","EGGS_Q","BANANA_YN","BANANA_Q","FRUITS_YN","FRUITS_Q","VEG_YN","VEG_Q","POT_YN","POT_Q","NUTS_YN","NUTS_Q","OTHER_YN","OTHER_LIST","MEALS/DAY","PLATE_PIC","DAL_YN","DAL_Q","BREAD_YN","BREAD_Q","RICE_YN","RICE_Q","DAIRY_YN","DAIRY_Q","MEAT_YN","MEAT_Q","EGGS_YN","EGGS_Q","BANANA_YN","BANANA_Q","FRUITS_YN","FRUITS_Q","VEG_YN","VEG_Q","POT_YN","POT_Q","NUTS_YN","NUTS_Q","OTHER_YN","OTHER_LIST","MEALS/DAY","PLATE_PIC","DAL_YN","DAL_Q","BREAD_YN","BREAD_Q","RICE_YN","RICE_Q","DAIRY_YN","DAIRY_Q","MEAT_YN","MEAT_Q","EGGS_YN","EGGS_Q","BANANA_YN","BANANA_Q","FRUITS_YN","FRUITS_Q","VEG_YN","VEG_Q","POT_YN","POT_Q","NUTS_YN","NUTS_Q","OTHER_YN","OTHER_LIST","MEALS/DAY","PLATE_PIC","DAL_YN","DAL_Q","BREAD_YN","BREAD_Q","RICE_YN","RICE_Q","DAIRY_YN","DAIRY_Q","MEAT_YN","MEAT_Q","EGGS_YN","EGGS_Q","BANANA_YN","BANANA_Q","FRUITS_YN","FRUITS_Q","VEG_YN","VEG_Q","POT_YN","POT_Q","NUTS_YN","NUTS_Q","OTHER_YN","OTHER_LIST"
"2","DD/MM/YY","LB","Number","dd/mm/yy","total in HH","total children<18","in rupees/m","highest achieved class","Y=1 N=0","Y=1 N=0","Y=1 N=0","Y=1 N=0","Y=1 N=0","Y=1 N=0","Y=1 N=0","x/day (number)","Y=1 N=0","list","list","x/day","Y=1 N=0","List","Y=1 N=0","Y=1 N=0","x/day","Y=1 N=0","List","list","x/day","Y=1 N=0","List","Y=1 N=0","Y=1 N=0","Y=1 N=0","x/day","a small amnt =1 a medium amnt=2 a large amnt=3","Y=1 N=0","Once/week =1 severalxweek=2 every day=3 severalxday=4","Y=1 N=0","Once/week =1 severalxweek=2 every day=3 severalxday=4","Y=1 N=0","Once/week =1 severalxweek=2 every day=3 severalxday=4","Y=1 N=0","Once/week =1 severalxweek=2 every day=3 severalxday=4","Y=1 N=0","Once/week =1 severalxweek=2 every day=3 severalxday=4","Y=1 N=0","Once/week =1 severalxweek=2 every day=3 severalxday=4","Y=1 N=0","Once/week =1 severalxweek=2 every day=3 severalxday=4","Y=1 N=0","Once/week =1 severalxweek=2 every day=3 severalxday=4","Y=1 N=0","Once/week =1 severalxweek=2 every day=3 severalxday=4","Y=1 N=0","Once/week =1 severalxweek=2 every day=3 severalxday=4","Y=1 N=0","Once/week =1 severalxweek=2 every day=3 severalxday=4","Y=1 N=0","List","x/day","a small amnt =1 a medium amnt=2 a large amnt=3","Y=1 N=0","Once/week =1 severalxweek=2 every day=3 severalxday=4","Y=1 N=0","Once/week =1 severalxweek=2 every day=3 severalxday=4","Y=1 N=0","Once/week =1 severalxweek=2 every day=3 severalxday=4","Y=1 N=0","Once/week =1 severalxweek=2 every day=3 severalxday=4","Y=1 N=0","Once/week =1 severalxweek=2 every day=3 severalxday=4","Y=1 N=0","Once/week =1 severalxweek=2 every day=3 severalxday=4","Y=1 N=0","Once/week =1 severalxweek=2 every day=3 severalxday=4","Y=1 N=0","Once/week =1 severalxweek=2 every day=3 severalxday=4","Y=1 N=0","Once/week =1 severalxweek=2 every day=3 severalxday=4","Y=1 N=0","Once/week =1 severalxweek=2 every day=3 severalxday=4","Y=1 N=0","Once/week =1 severalxweek=2 every day=3 severalxday=4","Y=1 N=0","List","x/day","a small amnt =1 a medium amnt=2 a large amnt=3","Y=1 N=0","Once/week =1 severalxweek=2 every day=3 severalxday=4","Y=1 N=0","Once/week =1 severalxweek=2 every day=3 severalxday=4","Y=1 N=0","Once/week =1 severalxweek=2 every day=3 severalxday=4","Y=1 N=0","Once/week =1 severalxweek=2 every day=3 severalxday=4","Y=1 N=0","Once/week =1 severalxweek=2 every day=3 severalxday=4","Y=1 N=0","Once/week =1 severalxweek=2 every day=3 severalxday=4","Y=1 N=0","Once/week =1 severalxweek=2 every day=3 severalxday=4","Y=1 N=0","Once/week =1 severalxweek=2 every day=3 severalxday=4","Y=1 N=0","Once/week =1 severalxweek=2 every day=3 severalxday=4","Y=1 N=0","Once/week =1 severalxweek=2 every day=3 severalxday=4","Y=1 N=0","Once/week =1 severalxweek=2 every day=3 severalxday=4","Y=1 N=0","List","x/day","a small amnt =1 a medium amnt=2 a large amnt=3","Y=1 N=0","Once/week =1 severalxweek=2 every day=3 severalxday=4","Y=1 N=0","Once/week =1 severalxweek=2 every day=3 severalxday=4","Y=1 N=0","Once/week =1 severalxweek=2 every day=3 severalxday=4","Y=1 N=0","Once/week =1 severalxweek=2 every day=3 severalxday=4","Y=1 N=0","Once/week =1 severalxweek=2 every day=3 severalxday=4","Y=1 N=0","Once/week =1 severalxweek=2 every day=3 severalxday=4","Y=1 N=0","Once/week =1 severalxweek=2 every day=3 severalxday=4","Y=1 N=0","Once/week =1 severalxweek=2 every day=3 severalxday=4","Y=1 N=0","Once/week =1 severalxweek=2 every day=3 severalxday=4","Y=1 N=0","Once/week =1 severalxweek=2 every day=3 severalxday=4","Y=1 N=0","Once/week =1 severalxweek=2 every day=3 severalxday=4","Y=1 N=0","List"
"3","43455","LB","5","42982","5","2","3380","0","1","1","1","1","1","1",NA,NA,NA,NA,NA,NA,NA,NA,NA,"1","20","0",NA,NA,NA,"1","Water","1","0","0","4","1","1","4","1","4","1","4","0",NA,"1","2","1","2","1","1","1","1","1","4","1","4","1","4","1","Biscuits",NA,NA,NA,NA,NA,NA,NA,NA,NA,NA,NA,NA,NA,NA,NA,NA,NA,NA,NA,NA,NA,NA,NA,NA,NA,NA,NA,NA,NA,NA,NA,NA,NA,NA,NA,NA,NA,NA,NA,NA,NA,NA,NA,NA,NA,NA,NA,NA,NA,NA,NA,NA,NA,NA,NA,NA,NA,NA,NA,NA,NA,NA,NA,NA,NA,NA,NA,NA,NA,NA,NA,NA,NA,NA,NA,NA,NA,NA
"4","22.12.18","LB","19","17.04.17","8","1","4000","5","1","1","1","1","0","0",NA,NA,NA,NA,NA,NA,NA,NA,NA,"1","9","0",NA,NA,NA,"1","Water","1","0","0","4","1","1","3","1","3","1","3","1","3","1","1","1","2","1","2","1","1","1","2","1","3","0","0","1","Biscuits candy",NA,NA,NA,NA,NA,NA,NA,NA,NA,NA,NA,NA,NA,NA,NA,NA,NA,NA,NA,NA,NA,NA,NA,NA,NA,NA,NA,NA,NA,NA,NA,NA,NA,NA,NA,NA,NA,NA,NA,NA,NA,NA,NA,NA,NA,NA,NA,NA,NA,NA,NA,NA,NA,NA,NA,NA,NA,NA,NA,NA,NA,NA,NA,NA,NA,NA,NA,NA,NA,NA,NA,NA,NA,NA,NA,NA,NA,NA
"5","43456","LB","29","42539","5","0","4000","5","1","1","1","1","0","0",NA,NA,NA,NA,NA,NA,NA,NA,NA,"0",NA,NA,NA,NA,NA,NA,NA,NA,NA,NA,"3","1","1","3","1","3","1","3","1","3","1","1","1","2","1","2","0","0","1","3","1","3","1","2",NA,NA,NA,NA,NA,NA,NA,NA,NA,NA,NA,NA,NA,NA,NA,NA,NA,NA,NA,NA,NA,NA,NA,NA,NA,NA,NA,NA,NA,NA,NA,NA,NA,NA,NA,NA,NA,NA,NA,NA,NA,NA,NA,NA,NA,NA,NA,NA,NA,NA,NA,NA,NA,NA,NA,NA,NA,NA,NA,NA,NA,NA,NA,NA,NA,NA,NA,NA,NA,NA,NA,NA,NA,NA,NA,NA,NA,NA,NA,NA
"6","43456","LB","30","42981","6","0","10000","0","1","1","1","1","0","1",NA,NA,NA,NA,NA,NA,NA,NA,NA,"1","4","0",NA,NA,NA,"1","Cow milk","1","0","0","4","1","1","3","1","3","1","3","1","3","1","2","1","2","1","3","0","0","0","0","1","3","0","0",NA,"Biscuits chips",NA,NA,NA,NA,NA,NA,NA,NA,NA,NA,NA,NA,NA,NA,NA,NA,NA,NA,NA,NA,NA,NA,NA,NA,NA,NA,NA,NA,NA,NA,NA,NA,NA,NA,NA,NA,NA,NA,NA,NA,NA,NA,NA,NA,NA,NA,NA,NA,NA,NA,NA,NA,NA,NA,NA,NA,NA,NA,NA,NA,NA,NA,NA,NA,NA,NA,NA,NA,NA,NA,NA,NA,NA,NA,NA,NA,NA,NA
"7","43455","LB","36","42999","5","0","7000","3","1","1","1","0","0","0",NA,NA,NA,NA,NA,NA,NA,NA,NA,"1","3","0",NA,NA,NA,"1","Water","1","1","1","2","2","1","2","1","2","1","2","0","0","1","2","1","2","0","0","1","2","0","0","0","0","1","2","1","Chips",NA,NA,NA,NA,NA,NA,NA,NA,NA,NA,NA,NA,NA,NA,NA,NA,NA,NA,NA,NA,NA,NA,NA,NA,NA,NA,NA,NA,NA,NA,NA,NA,NA,NA,NA,NA,NA,NA,NA,NA,NA,NA,NA,NA,NA,NA,NA,NA,NA,NA,NA,NA,NA,NA,NA,NA,NA,NA,NA,NA,NA,NA,NA,NA,NA,NA,NA,NA,NA,NA,NA,NA,NA,NA,NA,NA,NA,NA
"8","43448","LB","47","42615","8","1","6000","6","1","1","1","1","0","1",NA,NA,NA,NA,NA,NA,NA,NA,NA,NA,NA,NA,NA,NA,NA,NA,NA,NA,NA,NA,NA,NA,"1","3","1","2","1","3","1","2","1","2","1","2","1","2","1","2","1","3","1","3","1","1",NA,"0",NA,NA,NA,NA,NA,NA,NA,NA,NA,NA,NA,NA,NA,NA,NA,NA,NA,NA,NA,NA,NA,NA,NA,NA,NA,NA,NA,NA,NA,NA,NA,NA,NA,NA,NA,NA,NA,NA,NA,NA,NA,NA,NA,NA,NA,NA,NA,NA,NA,NA,NA,NA,NA,NA,NA,NA,NA,NA,NA,NA,NA,NA,NA,NA,NA,NA,NA,NA,NA,NA,NA,NA,NA,NA,NA,NA,NA,NA
"9","43455","LB","51","42554","7","2","4500","4","1","1","1","1","1","1",NA,NA,NA,NA,NA,NA,NA,NA,NA,NA,NA,NA,NA,NA,NA,NA,NA,NA,NA,NA,"3","1","1","2","1","2","1","2","1","2","1","1","1","1","0","0","1","1","0","0","1","2","1","1","0","0",NA,NA,NA,NA,NA,NA,NA,NA,NA,NA,NA,NA,NA,NA,NA,NA,NA,NA,NA,NA,NA,NA,NA,NA,NA,NA,NA,NA,NA,NA,NA,NA,NA,NA,NA,NA,NA,NA,NA,NA,NA,NA,NA,NA,NA,NA,NA,NA,NA,NA,NA,NA,NA,NA,NA,NA,NA,NA,NA,NA,NA,NA,NA,NA,NA,NA,NA,NA,NA,NA,NA,NA,NA,NA,NA,NA,NA,NA
"10","43456","LB","52","42554","7","2","4500","4",NA,NA,NA,NA,NA,NA,NA,NA,NA,NA,NA,NA,NA,NA,NA,NA,NA,NA,NA,NA,NA,NA,NA,NA,NA,NA,"3","1","1","2","1","3","1","3","1","3","1","1","1","2","1","2","0","0","1","2","1","3","1","2","0","0",NA,NA,NA,NA,NA,NA,NA,NA,NA,NA,NA,NA,NA,NA,NA,NA,NA,NA,NA,NA,NA,NA,NA,NA,NA,NA,NA,NA,NA,NA,NA,NA,NA,NA,NA,NA,NA,NA,NA,NA,NA,NA,NA,NA,NA,NA,NA,NA,NA,NA,NA,NA,NA,NA,NA,NA,NA,NA,NA,NA,NA,NA,NA,NA,NA,NA,NA,NA,NA,NA,NA,NA,NA,NA,NA,NA,NA,NA
"11","43456","LB","57","42744","3","0","6000","7","1","1","1","1","0","1",NA,NA,NA,NA,NA,NA,NA,NA,NA,"1","5","0",NA,NA,NA,"1","Water, water with sugar","1","0","0","3","1","1","3","0","0","1","3","0","0","1","3","1","3","1","3","1","2","1","2","1","3","0","0","1","chips biscuits",NA,NA,NA,NA,NA,NA,NA,NA,NA,NA,NA,NA,NA,NA,NA,NA,NA,NA,NA,NA,NA,NA,NA,NA,NA,NA,NA,NA,NA,NA,NA,NA,NA,NA,NA,NA,NA,NA,NA,NA,NA,NA,NA,NA,NA,NA,NA,NA,NA,NA,NA,NA,NA,NA,NA,NA,NA,NA,NA,NA,NA,NA,NA,NA,NA,NA,NA,NA,NA,NA,NA,NA,NA,NA,NA,NA,NA,NA
"12","43503","LB","68","42557","5","4","4000","0","1","1","0","0","0","1",NA,NA,NA,NA,NA,NA,NA,NA,NA,"1","10","0","0","0","0","1","Cow milk","1","1","1","3","1","1","4","0","0","1","4","1","4","1","2","1","2","1","2","1","2","1","4","1","4","1","2","0","0",NA,NA,NA,NA,NA,NA,NA,NA,NA,NA,NA,NA,NA,NA,NA,NA,NA,NA,NA,NA,NA,NA,NA,NA,NA,NA,NA,NA,NA,NA,NA,NA,NA,NA,NA,NA,NA,NA,NA,NA,NA,NA,NA,NA,NA,NA,NA,NA,NA,NA,NA,NA,NA,NA,NA,NA,NA,NA,NA,NA,NA,NA,NA,NA,NA,NA,NA,NA,NA,NA,NA,NA,NA,NA,NA,NA,NA,NA
"13","21.12.18","LB","139","20.01.14","6","2","6000","7","1","1","1","0","0","1",NA,NA,NA,NA,NA,NA,NA,NA,NA,NA,NA,NA,NA,NA,NA,NA,NA,NA,NA,NA,"3","1","1","4","1","4","1","4","1","1","0","0","1","2","1","2","1","2","0","0","1","4","0","0","1","Biscuits, chips everydays several times a day.",NA,NA,NA,NA,NA,NA,NA,NA,NA,NA,NA,NA,NA,NA,NA,NA,NA,NA,NA,NA,NA,NA,NA,NA,NA,NA,NA,NA,NA,NA,NA,NA,NA,NA,NA,NA,NA,NA,NA,NA,NA,NA,NA,NA,NA,NA,NA,NA,NA,NA,NA,NA,NA,NA,NA,NA,NA,NA,NA,NA,NA,NA,NA,NA,NA,NA,NA,NA,NA,NA,NA,NA,NA,NA,NA,NA,NA,NA
"14","43455","LB","183","42545","7","3","4000","0","1","1","1","0","0","0",NA,NA,NA,NA,NA,NA,NA,NA,NA,NA,NA,NA,NA,NA,NA,NA,NA,NA,NA,NA,"3","1","1","4","1","4","1","4","1","2","1","1","1","2","1","2","1","2","1","4","1","4","1","2","1","Bicuits chips everyday",NA,NA,NA,NA,NA,NA,NA,NA,NA,NA,NA,NA,NA,NA,NA,NA,NA,NA,NA,NA,NA,NA,NA,NA,NA,NA,NA,NA,NA,NA,NA,NA,NA,NA,NA,NA,NA,NA,NA,NA,NA,NA,NA,NA,NA,NA,NA,NA,NA,NA,NA,NA,NA,NA,NA,NA,NA,NA,NA,NA,NA,NA,NA,NA,NA,NA,NA,NA,NA,NA,NA,NA,NA,NA,NA,NA,NA,NA
"15","43456","LB","208","42402","4","1","500","12 passed","1","1","1","1","0","0",NA,NA,NA,NA,NA,NA,NA,NA,NA,NA,NA,NA,NA,NA,NA,NA,NA,NA,NA,NA,"4","2","1","3","1","3","1","3","1","2","1","2","1","3","1","2","1","3","0","0","1","3","1","2","1","Biscuit chocolate everyday",NA,NA,NA,NA,NA,NA,NA,NA,NA,NA,NA,NA,NA,NA,NA,NA,NA,NA,NA,NA,NA,NA,NA,NA,NA,NA,NA,NA,NA,NA,NA,NA,NA,NA,NA,NA,NA,NA,NA,NA,NA,NA,NA,NA,NA,NA,NA,NA,NA,NA,NA,NA,NA,NA,NA,NA,NA,NA,NA,NA,NA,NA,NA,NA,NA,NA,NA,NA,NA,NA,NA,NA,NA,NA,NA,NA,NA,NA
"16","43448","LB","224","42515",NA,NA,NA,NA,NA,NA,NA,NA,NA,NA,NA,NA,NA,NA,NA,NA,NA,NA,NA,NA,NA,NA,NA,NA,NA,NA,NA,NA,NA,NA,"6","2","1","4","1","4","1","4","1","4","1","2","1","3","1","2","1","2","1","2","1","4","1","2","1","Suji, dallia, samoy(?)",NA,NA,NA,NA,NA,NA,NA,NA,NA,NA,NA,NA,NA,NA,NA,NA,NA,NA,NA,NA,NA,NA,NA,NA,NA,NA,NA,NA,NA,NA,NA,NA,NA,NA,NA,NA,NA,NA,NA,NA,NA,NA,NA,NA,NA,NA,NA,NA,NA,NA,NA,NA,NA,NA,NA,NA,NA,NA,NA,NA,NA,NA,NA,NA,NA,NA,NA,NA,NA,NA,NA,NA,NA,NA,NA,NA,NA,NA
"17","43456","LB","233","42478","5","4","4000","0","1","1","1","1","1","1",NA,NA,NA,NA,NA,NA,NA,NA,NA,NA,NA,NA,NA,NA,NA,NA,NA,NA,NA,NA,"3","2","1","3","0","0","1","3","0","0","1","3","1","3","1","3","1","2","1","2","1","3","1","2","1","Biscuit and chips not everyday",NA,NA,NA,NA,NA,NA,NA,NA,NA,NA,NA,NA,NA,NA,NA,NA,NA,NA,NA,NA,NA,NA,NA,NA,NA,NA,NA,NA,NA,NA,NA,NA,NA,NA,NA,NA,NA,NA,NA,NA,NA,NA,NA,NA,NA,NA,NA,NA,NA,NA,NA,NA,NA,NA,NA,NA,NA,NA,NA,NA,NA,NA,NA,NA,NA,NA,NA,NA,NA,NA,NA,NA,NA,NA,NA,NA,NA,NA
"18","43456","LB","239","42902","3","0","4000","0","1","1","1","1","0","0",NA,NA,NA,NA,NA,NA,NA,NA,NA,"0",NA,NA,NA,NA,NA,"1","animal milk, water","1","0","0","4","1",NA,NA,NA,NA,NA,NA,NA,NA,NA,NA,NA,NA,NA,NA,NA,NA,NA,NA,NA,NA,NA,NA,NA,NA,NA,NA,NA,NA,NA,NA,NA,NA,NA,NA,NA,NA,NA,NA,NA,NA,NA,NA,NA,NA,NA,NA,NA,NA,NA,NA,NA,NA,NA,NA,NA,NA,NA,NA,NA,NA,NA,NA,NA,NA,NA,NA,NA,NA,NA,NA,NA,NA,NA,NA,NA,NA,NA,NA,NA,NA,NA,NA,NA,NA,NA,NA,NA,NA,NA,NA,NA,NA,NA,NA,NA,NA,NA,NA,NA,NA,NA,NA
"19","43456","LB","254","42624","6","2","3000","10","1","1","1","0","0","0",NA,NA,NA,NA,NA,NA,NA,NA,NA,NA,NA,NA,NA,NA,NA,NA,NA,NA,NA,NA,"4","2","1","2","1","2","1","3","1","3","1","2","1","2","1","2","0","0","1","2","1","3","1","2","1","Biscuits chips not everyday",NA,NA,NA,NA,NA,NA,NA,NA,NA,NA,NA,NA,NA,NA,NA,NA,NA,NA,NA,NA,NA,NA,NA,NA,NA,NA,NA,NA,NA,NA,NA,NA,NA,NA,NA,NA,NA,NA,NA,NA,NA,NA,NA,NA,NA,NA,NA,NA,NA,NA,NA,NA,NA,NA,NA,NA,NA,NA,NA,NA,NA,NA,NA,NA,NA,NA,NA,NA,NA,NA,NA,NA,NA,NA,NA,NA,NA,NA
"20","43456","LB","269","42405",NA,NA,NA,NA,NA,NA,NA,NA,NA,NA,NA,NA,NA,NA,NA,NA,NA,NA,NA,NA,NA,NA,NA,NA,NA,NA,NA,NA,NA,NA,"4","3","1","3","1","3","1","3","1","3","1","3","1","3","1","3","1","3","1","2","1","3","1","2","1","Biscuit, Chips, cholcolate everyday",NA,NA,NA,NA,NA,NA,NA,NA,NA,NA,NA,NA,NA,NA,NA,NA,NA,NA,NA,NA,NA,NA,NA,NA,NA,NA,NA,NA,NA,NA,NA,NA,NA,NA,NA,NA,NA,NA,NA,NA,NA,NA,NA,NA,NA,NA,NA,NA,NA,NA,NA,NA,NA,NA,NA,NA,NA,NA,NA,NA,NA,NA,NA,NA,NA,NA,NA,NA,NA,NA,NA,NA,NA,NA,NA,NA,NA,NA
"21","43456","LB","275","43021","10","1","4000","8","1","1","1","1","1","1",NA,NA,NA,NA,NA,NA,NA,NA,NA,"1","5","0",NA,NA,NA,"1","Cow milk","1","1","1","4","1","1","2","1","1","1","1","1","1","1","1","1","2","0","0","1","2","1","2","1","1","0","0","1","Biscuits, Suji",NA,NA,NA,NA,NA,NA,NA,NA,NA,NA,NA,NA,NA,NA,NA,NA,NA,NA,NA,NA,NA,NA,NA,NA,NA,NA,NA,NA,NA,NA,NA,NA,NA,NA,NA,NA,NA,NA,NA,NA,NA,NA,NA,NA,NA,NA,NA,NA,NA,NA,NA,NA,NA,NA,NA,NA,NA,NA,NA,NA,NA,NA,NA,NA,NA,NA,NA,NA,NA,NA,NA,NA,NA,NA,NA,NA,NA,NA
"22","43503","LB","276","42870","6","1","6000","0","1","1","1","1","0","0",NA,NA,NA,NA,NA,NA,NA,NA,NA,"1","8","0",NA,NA,NA,"1","Water","1","0","0","3","1","1","3","1","2","1","3","1","3","1","2","1","1","1","1","1","1","1","3","1","3","1","1","1","Horlicks",NA,NA,NA,NA,NA,NA,NA,NA,NA,NA,NA,NA,NA,NA,NA,NA,NA,NA,NA,NA,NA,NA,NA,NA,NA,NA,NA,NA,NA,NA,NA,NA,NA,NA,NA,NA,NA,NA,NA,NA,NA,NA,NA,NA,NA,NA,NA,NA,NA,NA,NA,NA,NA,NA,NA,NA,NA,NA,NA,NA,NA,NA,NA,NA,NA,NA,NA,NA,NA,NA,NA,NA,NA,NA,NA,NA,NA,NA
"23","43455","LB","293","42410","7","3","2000","0","1","1","1","1","0","1",NA,NA,NA,NA,NA,NA,NA,NA,NA,NA,NA,NA,NA,NA,NA,NA,NA,NA,NA,NA,"4","2","1","4","1","4","1","4","0","0","1","1","1","1","1","1","1","2","1","4","1","4","1","2","1","Biscuits chips",NA,NA,NA,NA,NA,NA,NA,NA,NA,NA,NA,NA,NA,NA,NA,NA,NA,NA,NA,NA,NA,NA,NA,NA,NA,NA,NA,NA,NA,NA,NA,NA,NA,NA,NA,NA,NA,NA,NA,NA,NA,NA,NA,NA,NA,NA,NA,NA,NA,NA,NA,NA,NA,NA,NA,NA,NA,NA,NA,NA,NA,NA,NA,NA,NA,NA,NA,NA,NA,NA,NA,NA,NA,NA,NA,NA,NA,NA
"24","43456","LB","299","42853","5","2","4000","0","1","1","1","1","0","0",NA,NA,NA,NA,NA,NA,NA,NA,NA,"0",NA,"0",NA,NA,NA,"1","Horlicks","1","0","0","3","2",NA,NA,NA,NA,NA,NA,NA,NA,NA,NA,NA,NA,NA,NA,NA,NA,NA,NA,NA,NA,NA,NA,NA,NA,NA,NA,NA,NA,NA,NA,NA,NA,NA,NA,NA,NA,NA,NA,NA,NA,NA,NA,NA,NA,NA,NA,NA,NA,NA,NA,NA,NA,NA,NA,NA,NA,NA,NA,NA,NA,NA,NA,NA,NA,NA,NA,NA,NA,NA,NA,NA,NA,NA,NA,NA,NA,NA,NA,NA,NA,NA,NA,NA,NA,NA,NA,NA,NA,NA,NA,NA,NA,NA,NA,NA,NA,NA,NA,NA,NA,NA,NA
"25","43456","LB","331","42938","9","2","6000","0","1","1","1","1","0","1",NA,NA,NA,NA,NA,NA,NA,NA,NA,"1","4","0",NA,NA,NA,"1","Water","1","0","1","2","1","1","3","1","3","1","3","1","3","1","2","1","2","0","0","1","2","1","3","1","3","1","2","1","Chips, biscuit, chocolate everyday",NA,NA,NA,NA,NA,NA,NA,NA,NA,NA,NA,NA,NA,NA,NA,NA,NA,NA,NA,NA,NA,NA,NA,NA,NA,NA,NA,NA,NA,NA,NA,NA,NA,NA,NA,NA,NA,NA,NA,NA,NA,NA,NA,NA,NA,NA,NA,NA,NA,NA,NA,NA,NA,NA,NA,NA,NA,NA,NA,NA,NA,NA,NA,NA,NA,NA,NA,NA,NA,NA,NA,NA,NA,NA,NA,NA,NA,NA
"26","43456","LB","338","42792","5","1","4000","8","1","1","1","0","1","1",NA,NA,NA,NA,NA,NA,NA,NA,NA,"0",NA,NA,NA,NA,NA,"1","Cow milk boiled","1","0","0","4","2","1","3","1","2","1","3","1","3","1","2","1","2","1","3","1","1","0","0","1","3","0","0","1","chips biscuits",NA,NA,NA,NA,NA,NA,NA,NA,NA,NA,NA,NA,NA,NA,NA,NA,NA,NA,NA,NA,NA,NA,NA,NA,NA,NA,NA,NA,NA,NA,NA,NA,NA,NA,NA,NA,NA,NA,NA,NA,NA,NA,NA,NA,NA,NA,NA,NA,NA,NA,NA,NA,NA,NA,NA,NA,NA,NA,NA,NA,NA,NA,NA,NA,NA,NA,NA,NA,NA,NA,NA,NA,NA,NA,NA,NA,NA,NA
"27","43456","LB","342","42686","9","2","3500","7","1","1","1","0","1","1",NA,NA,NA,NA,NA,NA,NA,NA,NA,NA,NA,NA,NA,NA,NA,NA,NA,NA,NA,NA,"4","1","1","3","1","3","1","3","1","3","1","2","1","2","1","2","1","1","1","3","1","3","1","1","0","0",NA,NA,NA,NA,NA,NA,NA,NA,NA,NA,NA,NA,NA,NA,NA,NA,NA,NA,NA,NA,NA,NA,NA,NA,NA,NA,NA,NA,NA,NA,NA,NA,NA,NA,NA,NA,NA,NA,NA,NA,NA,NA,NA,NA,NA,NA,NA,NA,NA,NA,NA,NA,NA,NA,NA,NA,NA,NA,NA,NA,NA,NA,NA,NA,NA,NA,NA,NA,NA,NA,NA,NA,NA,NA,NA,NA,NA,NA
"28","43455","LB","351","43258","5","1","2000","0","1","1","1","1","0","1","1","6","0",NA,NA,NA,"1","water","1",NA,NA,NA,NA,NA,NA,NA,NA,NA,NA,NA,NA,NA,NA,NA,NA,NA,NA,NA,NA,NA,NA,NA,NA,NA,NA,NA,NA,NA,NA,NA,NA,NA,NA,NA,NA,NA,NA,NA,NA,NA,NA,NA,NA,NA,NA,NA,NA,NA,NA,NA,NA,NA,NA,NA,NA,NA,NA,NA,NA,NA,NA,NA,NA,NA,NA,NA,NA,NA,NA,NA,NA,NA,NA,NA,NA,NA,NA,NA,NA,NA,NA,NA,NA,NA,NA,NA,NA,NA,NA,NA,NA,NA,NA,NA,NA,NA,NA,NA,NA,NA,NA,NA,NA,NA,NA,NA,NA,NA,NA,NA,NA,NA,NA,NA
"29","43440","LB","380","43035","3","1","4200","5","1","1","1","1","0","1","1","5","0",NA,NA,NA,"1","WATER, cerelac (babyfood)","0","1","10","0",NA,NA,NA,"1","Water","1","0","0","4","1","1","2","0","0","1","3","0","0","1","2","1","2","1","1","0","0","0","0","1","3","1","1",NA,NA,NA,NA,NA,NA,NA,NA,NA,NA,NA,NA,NA,NA,NA,NA,NA,NA,NA,NA,NA,NA,NA,NA,NA,NA,NA,NA,NA,NA,NA,NA,NA,NA,NA,NA,NA,NA,NA,NA,NA,NA,NA,NA,NA,NA,NA,NA,NA,NA,NA,NA,NA,NA,NA,NA,NA,NA,NA,NA,NA,NA,NA,NA,NA,NA,NA,NA,NA,NA,NA,NA,NA,NA,NA,NA,NA,NA,NA,NA
"30","43455","LB","416","42788","3","1","3000","0",NA,NA,NA,NA,NA,NA,NA,NA,NA,NA,NA,NA,NA,NA,NA,NA,NA,NA,NA,NA,NA,NA,NA,NA,NA,NA,"3","1","1","3","1","3","1","3","1","3","1","1","1","2","1","2","1","2","1","2","1","3","1","2","0","0",NA,NA,NA,NA,NA,NA,NA,NA,NA,NA,NA,NA,NA,NA,NA,NA,NA,NA,NA,NA,NA,NA,NA,NA,NA,NA,NA,NA,NA,NA,NA,NA,NA,NA,NA,NA,NA,NA,NA,NA,NA,NA,NA,NA,NA,NA,NA,NA,NA,NA,NA,NA,NA,NA,NA,NA,NA,NA,NA,NA,NA,NA,NA,NA,NA,NA,NA,NA,NA,NA,NA,NA,NA,NA,NA,NA,NA,NA
"31","43456","LB","453","42796","4","1","3500","0","1","1","1","1","0","0",NA,NA,NA,NA,NA,NA,NA,NA,NA,"1","9","0",NA,NA,NA,"1","Water, sugar water","1","0","0","3","1","1","3","0","0","1","3","1","2","1","2","1","2","1","1","1","1","1","2","1","3","1","1","1","Suji Chattu",NA,NA,NA,NA,NA,NA,NA,NA,NA,NA,NA,NA,NA,NA,NA,NA,NA,NA,NA,NA,NA,NA,NA,NA,NA,NA,NA,NA,NA,NA,NA,NA,NA,NA,NA,NA,NA,NA,NA,NA,NA,NA,NA,NA,NA,NA,NA,NA,NA,NA,NA,NA,NA,NA,NA,NA,NA,NA,NA,NA,NA,NA,NA,NA,NA,NA,NA,NA,NA,NA,NA,NA,NA,NA,NA,NA,NA,NA
"32","43456","LB","455","42792","5","1","9000","0","1","1","1","1","1","0",NA,NA,NA,NA,NA,NA,NA,NA,NA,"1","3","0",NA,NA,NA,"1","Cow milk","1","1","0","3","2","1","4","1","2","1","3","1","3","1","2","1","1","1","1","1","1","0","0","1","3","0","0","1","Biscuits chips",NA,NA,NA,NA,NA,NA,NA,NA,NA,NA,NA,NA,NA,NA,NA,NA,NA,NA,NA,NA,NA,NA,NA,NA,NA,NA,NA,NA,NA,NA,NA,NA,NA,NA,NA,NA,NA,NA,NA,NA,NA,NA,NA,NA,NA,NA,NA,NA,NA,NA,NA,NA,NA,NA,NA,NA,NA,NA,NA,NA,NA,NA,NA,NA,NA,NA,NA,NA,NA,NA,NA,NA,NA,NA,NA,NA,NA,NA
"33","43475","LB","464","42482","4","2","9000","9","1","1","0","0","0","0",NA,NA,NA,NA,NA,NA,NA,NA,NA,NA,NA,NA,NA,NA,NA,NA,NA,NA,NA,NA,"4","1","1","4","1","4","1","4","0","0","1","2","1","2","1","2","1","1","1","1","1","4","1","2","0","0",NA,NA,NA,NA,NA,NA,NA,NA,NA,NA,NA,NA,NA,NA,NA,NA,NA,NA,NA,NA,NA,NA,NA,NA,NA,NA,NA,NA,NA,NA,NA,NA,NA,NA,NA,NA,NA,NA,NA,NA,NA,NA,NA,NA,NA,NA,NA,NA,NA,NA,NA,NA,NA,NA,NA,NA,NA,NA,NA,NA,NA,NA,NA,NA,NA,NA,NA,NA,NA,NA,NA,NA,NA,NA,NA,NA,NA,NA
"34","43456","LB","466","42659",NA,NA,NA,NA,NA,NA,NA,NA,NA,NA,NA,NA,NA,NA,NA,NA,NA,NA,NA,NA,NA,NA,NA,NA,NA,NA,NA,NA,NA,NA,NA,NA,NA,NA,NA,NA,NA,NA,NA,NA,NA,NA,NA,NA,NA,NA,NA,NA,NA,NA,NA,NA,NA,NA,NA,NA,NA,NA,NA,NA,NA,NA,NA,NA,NA,NA,NA,NA,NA,NA,NA,NA,NA,NA,NA,NA,NA,NA,NA,NA,NA,NA,NA,NA,NA,NA,NA,NA,NA,NA,NA,NA,NA,NA,NA,NA,NA,NA,NA,NA,NA,NA,NA,NA,NA,NA,NA,NA,NA,NA,NA,NA,NA,NA,NA,NA,NA,NA,NA,NA,NA,NA,NA,NA,NA,NA,NA,NA,NA,NA,NA,NA,NA,NA
"35","43440","LB","467","43244","4","0","3600","8","1","1","1","0","0","0","1","5","0",NA,NA,NA,"1","Water + cerelac baby food","0",NA,NA,NA,NA,NA,NA,NA,NA,NA,NA,NA,NA,NA,NA,NA,NA,NA,NA,NA,NA,NA,NA,NA,NA,NA,NA,NA,NA,NA,NA,NA,NA,NA,NA,NA,NA,NA,NA,NA,NA,NA,NA,NA,NA,NA,NA,NA,NA,NA,NA,NA,NA,NA,NA,NA,NA,NA,NA,NA,NA,NA,NA,NA,NA,NA,NA,NA,NA,NA,NA,NA,NA,NA,NA,NA,NA,NA,NA,NA,NA,NA,NA,NA,NA,NA,NA,NA,NA,NA,NA,NA,NA,NA,NA,NA,NA,NA,NA,NA,NA,NA,NA,NA,NA,NA,NA,NA,NA,NA,NA,NA,NA,NA,NA,NA
"36","43821","LB","473","42685",NA,NA,NA,NA,NA,NA,NA,NA,NA,NA,NA,NA,NA,NA,NA,NA,NA,NA,NA,NA,NA,NA,NA,NA,NA,NA,NA,NA,NA,NA,NA,NA,"1","3","1","2","1","3","1","3","1","1","1","3","1","2","1","2","1","3","1","3","0","0","0","0",NA,NA,NA,NA,NA,NA,NA,NA,NA,NA,NA,NA,NA,NA,NA,NA,NA,NA,NA,NA,NA,NA,NA,NA,NA,NA,NA,NA,NA,NA,NA,NA,NA,NA,NA,NA,NA,NA,NA,NA,NA,NA,NA,NA,NA,NA,NA,NA,NA,NA,NA,NA,NA,NA,NA,NA,NA,NA,NA,NA,NA,NA,NA,NA,NA,NA,NA,NA,NA,NA,NA,NA,NA,NA,NA,NA,NA,NA
"37","43468","LB","478","42873","4","1","4000","0","1","1","1","0","0","0",NA,NA,NA,NA,NA,NA,NA,NA,NA,"1","4","0",NA,NA,NA,"1","Sugar water, juice","1","0","0","4","2","1","3","1","2","1","3","0","0","1","2","1","3","1","3","1","2","1","2","1","3","1","2","1","Biscuits, chips",NA,NA,NA,NA,NA,NA,NA,NA,NA,NA,NA,NA,NA,NA,NA,NA,NA,NA,NA,NA,NA,NA,NA,NA,NA,NA,NA,NA,NA,NA,NA,NA,NA,NA,NA,NA,NA,NA,NA,NA,NA,NA,NA,NA,NA,NA,NA,NA,NA,NA,NA,NA,NA,NA,NA,NA,NA,NA,NA,NA,NA,NA,NA,NA,NA,NA,NA,NA,NA,NA,NA,NA,NA,NA,NA,NA,NA,NA
"38","43456","LB","493","43004",NA,NA,NA,NA,NA,NA,NA,NA,NA,NA,NA,NA,NA,NA,NA,NA,NA,NA,NA,NA,NA,NA,NA,NA,NA,NA,NA,NA,NA,NA,NA,NA,NA,NA,NA,NA,NA,NA,NA,NA,NA,NA,NA,NA,NA,NA,NA,NA,NA,NA,NA,NA,NA,NA,NA,NA,NA,NA,NA,NA,NA,NA,NA,NA,NA,NA,NA,NA,NA,NA,NA,NA,NA,NA,NA,NA,NA,NA,NA,NA,NA,NA,NA,NA,NA,NA,NA,NA,NA,NA,NA,NA,NA,NA,NA,NA,NA,NA,NA,NA,NA,NA,NA,NA,NA,NA,NA,NA,NA,NA,NA,NA,NA,NA,NA,NA,NA,NA,NA,NA,NA,NA,NA,NA,NA,NA,NA,NA,NA,NA,NA,NA,NA,NA
"39","43456","LB","496","42622",NA,NA,NA,NA,NA,NA,NA,NA,NA,NA,NA,NA,NA,NA,NA,NA,NA,NA,NA,NA,NA,NA,NA,NA,NA,NA,NA,NA,NA,NA,NA,NA,NA,NA,NA,NA,NA,NA,NA,NA,NA,NA,NA,NA,NA,NA,NA,NA,NA,NA,NA,NA,NA,NA,NA,NA,NA,NA,NA,NA,NA,NA,NA,NA,NA,NA,NA,NA,NA,NA,NA,NA,NA,NA,NA,NA,NA,NA,NA,NA,NA,NA,NA,NA,NA,NA,NA,NA,NA,NA,NA,NA,NA,NA,NA,NA,NA,NA,NA,NA,NA,NA,NA,NA,NA,NA,NA,NA,NA,NA,NA,NA,NA,NA,NA,NA,NA,NA,NA,NA,NA,NA,NA,NA,NA,NA,NA,NA,NA,NA,NA,NA,NA,NA
"40","43456","LB","513","12.05.16","6","2","8000","0","1","1","1","1","1","1",NA,NA,NA,NA,NA,NA,NA,NA,NA,NA,NA,NA,NA,NA,NA,NA,NA,NA,NA,NA,"3","2","1","3","1","3","1","3","1","3","1","1","1","1","1","1","1","2","1","2","1","2","1","2","1","Biscuits, chips, everyday",NA,NA,NA,NA,NA,NA,NA,NA,NA,NA,NA,NA,NA,NA,NA,NA,NA,NA,NA,NA,NA,NA,NA,NA,NA,NA,NA,NA,NA,NA,NA,NA,NA,NA,NA,NA,NA,NA,NA,NA,NA,NA,NA,NA,NA,NA,NA,NA,NA,NA,NA,NA,NA,NA,NA,NA,NA,NA,NA,NA,NA,NA,NA,NA,NA,NA,NA,NA,NA,NA,NA,NA,NA,NA,NA,NA,NA,NA
"41","43456","LB","514","42924",NA,NA,NA,NA,NA,NA,NA,NA,NA,NA,NA,NA,NA,NA,NA,NA,NA,NA,NA,NA,NA,NA,NA,NA,NA,NA,NA,NA,NA,NA,NA,NA,NA,NA,NA,NA,NA,NA,NA,NA,NA,NA,NA,NA,NA,NA,NA,NA,NA,NA,NA,NA,NA,NA,NA,NA,NA,NA,NA,NA,NA,NA,NA,NA,NA,NA,NA,NA,NA,NA,NA,NA,NA,NA,NA,NA,NA,NA,NA,NA,NA,NA,NA,NA,NA,NA,NA,NA,NA,NA,NA,NA,NA,NA,NA,NA,NA,NA,NA,NA,NA,NA,NA,NA,NA,NA,NA,NA,NA,NA,NA,NA,NA,NA,NA,NA,NA,NA,NA,NA,NA,NA,NA,NA,NA,NA,NA,NA,NA,NA,NA,NA,NA,NA
"42","43440","LB","533","42388","5","3","9000","0","1","1","1","1","0","1",NA,NA,NA,NA,NA,NA,NA,NA,NA,NA,NA,NA,NA,NA,NA,NA,NA,NA,NA,NA,NA,NA,NA,NA,NA,NA,NA,NA,NA,NA,NA,NA,NA,NA,NA,NA,NA,NA,NA,NA,NA,NA,NA,NA,NA,NA,NA,NA,NA,NA,NA,NA,NA,NA,NA,NA,NA,NA,NA,NA,NA,NA,NA,NA,NA,NA,NA,NA,NA,NA,NA,NA,NA,NA,NA,NA,NA,NA,NA,NA,NA,NA,NA,NA,NA,NA,NA,NA,NA,NA,NA,NA,NA,NA,NA,NA,NA,NA,NA,NA,NA,NA,NA,NA,NA,NA,NA,NA,NA,NA,NA,NA,NA,NA,NA,NA,NA,NA,NA,NA,NA,NA,NA,NA
"43","43440","LB","545","42979","4","2","6000","11","1","1","1","0","0","0",NA,NA,NA,NA,NA,NA,NA,NA,NA,"1","4","1","HORLICKS","200ml water with 1 tea spoon powder","1","1","Water","1","0","0","4","2","1","3","1","3","1","3","1","1","1","1","1","2","1","1","1","1","1","1","1","1","1","1","0","0",NA,NA,NA,NA,NA,NA,NA,NA,NA,NA,NA,NA,NA,NA,NA,NA,NA,NA,NA,NA,NA,NA,NA,NA,NA,NA,NA,NA,NA,NA,NA,NA,NA,NA,NA,NA,NA,NA,NA,NA,NA,NA,NA,NA,NA,NA,NA,NA,NA,NA,NA,NA,NA,NA,NA,NA,NA,NA,NA,NA,NA,NA,NA,NA,NA,NA,NA,NA,NA,NA,NA,NA,NA,NA,NA,NA,NA,NA
"44","43440","LB","558","43263","10","2","3000","0","1","1","1","0","0","0",NA,NA,NA,NA,NA,NA,NA,NA,NA,"1","6","0",NA,NA,NA,"1","Fruit juice","1","0","0","4","1","1","3","1","3","1","3","1","3","1","1","1","2","1","1","1","1","1","3","1","3","1","1","0","0",NA,NA,NA,NA,NA,NA,NA,NA,NA,NA,NA,NA,NA,NA,NA,NA,NA,NA,NA,NA,NA,NA,NA,NA,NA,NA,NA,NA,NA,NA,NA,NA,NA,NA,NA,NA,NA,NA,NA,NA,NA,NA,NA,NA,NA,NA,NA,NA,NA,NA,NA,NA,NA,NA,NA,NA,NA,NA,NA,NA,NA,NA,NA,NA,NA,NA,NA,NA,NA,NA,NA,NA,NA,NA,NA,NA,NA,NA
"45","43448","LB","564","43220","9","2","5000","0","1","1","1","0","0","0",NA,NA,NA,NA,NA,NA,NA,NA,NA,"1","10","0",NA,NA,NA,"1","Cerelac nestlé, fruit juice, water","0","1","1",NA,NA,NA,NA,NA,NA,NA,NA,NA,NA,NA,NA,NA,NA,NA,NA,NA,NA,NA,NA,NA,NA,NA,NA,NA,NA,NA,NA,NA,NA,NA,NA,NA,NA,NA,NA,NA,NA,NA,NA,NA,NA,NA,NA,NA,NA,NA,NA,NA,NA,NA,NA,NA,NA,NA,NA,NA,NA,NA,NA,NA,NA,NA,NA,NA,NA,NA,NA,NA,NA,NA,NA,NA,NA,NA,NA,NA,NA,NA,NA,NA,NA,NA,NA,NA,NA,NA,NA,NA,NA,NA,NA,NA,NA,NA,NA,NA,NA,NA,NA,NA,NA,NA,NA
"46","43456","LB","577","43020","5","2","6000","0","1","1","1","1","0","1",NA,NA,NA,NA,NA,NA,NA,NA,NA,"1","5","0",NA,NA,NA,"1","Cow milk, water","1","0","0","3","2","1","3","1","2","1","3","1","3","1","1","1","3","1","3","0","0","0","0","1","3","0","0","1","Biscuits, chips",NA,NA,NA,NA,NA,NA,NA,NA,NA,NA,NA,NA,NA,NA,NA,NA,NA,NA,NA,NA,NA,NA,NA,NA,NA,NA,NA,NA,NA,NA,NA,NA,NA,NA,NA,NA,NA,NA,NA,NA,NA,NA,NA,NA,NA,NA,NA,NA,NA,NA,NA,NA,NA,NA,NA,NA,NA,NA,NA,NA,NA,NA,NA,NA,NA,NA,NA,NA,NA,NA,NA,NA,NA,NA,NA,NA,NA,NA
"47","43456","LB","578","42600","7","3","6000","6","1","1","1","1","1","1",NA,NA,NA,NA,NA,NA,NA,NA,NA,NA,NA,NA,NA,NA,NA,NA,NA,NA,NA,NA,"4","1","1","2","1","3","0","0","1","3","1","2","1","1","1","1","1","1","0","0","1","3","1","2","1","Choclate kurkura, bsicuits",NA,NA,NA,NA,NA,NA,NA,NA,NA,NA,NA,NA,NA,NA,NA,NA,NA,NA,NA,NA,NA,NA,NA,NA,NA,NA,NA,NA,NA,NA,NA,NA,NA,NA,NA,NA,NA,NA,NA,NA,NA,NA,NA,NA,NA,NA,NA,NA,NA,NA,NA,NA,NA,NA,NA,NA,NA,NA,NA,NA,NA,NA,NA,NA,NA,NA,NA,NA,NA,NA,NA,NA,NA,NA,NA,NA,NA,NA
"48","43456","LB","579","42618","3","1","3000","5","1","1","1","0","0","1",NA,NA,NA,NA,NA,NA,NA,NA,NA,NA,NA,NA,NA,NA,NA,NA,NA,NA,NA,NA,"3","1","1","3","1","3","1","3","1","3","1","3","1","2","1","2","0","1","3","1","1","1","1","1","0","Biscuits, chocolate Kurkura not every day",NA,NA,NA,NA,NA,NA,NA,NA,NA,NA,NA,NA,NA,NA,NA,NA,NA,NA,NA,NA,NA,NA,NA,NA,NA,NA,NA,NA,NA,NA,NA,NA,NA,NA,NA,NA,NA,NA,NA,NA,NA,NA,NA,NA,NA,NA,NA,NA,NA,NA,NA,NA,NA,NA,NA,NA,NA,NA,NA,NA,NA,NA,NA,NA,NA,NA,NA,NA,NA,NA,NA,NA,NA,NA,NA,NA,NA,NA
"49","43455","LB","580","43152","6","1","8000","8","1","1","1","1","0","1",NA,NA,NA,NA,NA,NA,NA,NA,NA,"1","6","1","Nestle nestum",NA,NA,"1","Water","1","1","1","2","2","1","2","1","2","0","0","1","3","0","0","0","0","0","0","0","0","0","0","0","0","0","0","1","Biscuits, chocolat",NA,NA,NA,NA,NA,NA,NA,NA,NA,NA,NA,NA,NA,NA,NA,NA,NA,NA,NA,NA,NA,NA,NA,NA,NA,NA,NA,NA,NA,NA,NA,NA,NA,NA,NA,NA,NA,NA,NA,NA,NA,NA,NA,NA,NA,NA,NA,NA,NA,NA,NA,NA,NA,NA,NA,NA,NA,NA,NA,NA,NA,NA,NA,NA,NA,NA,NA,NA,NA,NA,NA,NA,NA,NA,NA,NA,NA,NA
"50","43511","LB","600","42583","5","3","4500","0","1","1","1","1","0","0",NA,NA,NA,NA,NA,NA,NA,NA,NA,NA,NA,NA,NA,NA,NA,NA,NA,NA,NA,NA,"4","1","1","2","1","1","1","1","1","2","1","1","1","1","1","1","1","1","1","3","1","2","1","2","0","0",NA,NA,NA,NA,NA,NA,NA,NA,NA,NA,NA,NA,NA,NA,NA,NA,NA,NA,NA,NA,NA,NA,NA,NA,NA,NA,NA,NA,NA,NA,NA,NA,NA,NA,NA,NA,NA,NA,NA,NA,NA,NA,NA,NA,NA,NA,NA,NA,NA,NA,NA,NA,NA,NA,NA,NA,NA,NA,NA,NA,NA,NA,NA,NA,NA,NA,NA,NA,NA,NA,NA,NA,NA,NA,NA,NA,NA,NA
"51","43511","LB","601","43109","6","1","5000","8","1","1","0","0","0","0",NA,NA,NA,NA,NA,NA,NA,NA,NA,"1","5","0",NA,NA,NA,"0","0","1","1","1","4","1","1","1","1","2","1","1","1","2","1","2","1","2","1","2","1","2","1","2","1","3","0","0","0","0",NA,NA,NA,NA,NA,NA,NA,NA,NA,NA,NA,NA,NA,NA,NA,NA,NA,NA,NA,NA,NA,NA,NA,NA,NA,NA,NA,NA,NA,NA,NA,NA,NA,NA,NA,NA,NA,NA,NA,NA,NA,NA,NA,NA,NA,NA,NA,NA,NA,NA,NA,NA,NA,NA,NA,NA,NA,NA,NA,NA,NA,NA,NA,NA,NA,NA,NA,NA,NA,NA,NA,NA,NA,NA,NA,NA,NA,NA
"52","43544","LB","245","43079","9","2","4500","0","1","1","1","0","0","0",NA,NA,NA,NA,NA,NA,NA,NA,NA,"1","20","1","NESTLE CERALAC","Boild water","2","1","WATER","1","1","1","2","1","1","4","1","4","1","4","0","0","0","0","0","0","0","0","0","0","0","0","0","0","0","0","0",NA,NA,NA,NA,NA,NA,NA,NA,NA,NA,NA,NA,NA,NA,NA,NA,NA,NA,NA,NA,NA,NA,NA,NA,NA,NA,NA,NA,NA,NA,NA,NA,NA,NA,NA,NA,NA,NA,NA,NA,NA,NA,NA,NA,NA,NA,NA,NA,NA,NA,NA,NA,NA,NA,NA,NA,NA,NA,NA,NA,NA,NA,NA,NA,NA,NA,NA,NA,NA,NA,NA,NA,NA,NA,NA,NA,NA,NA,NA
