"","Peanut butter and nutrimix","..2","..3","..4","..5","..6","..7","..8","..9","..10","March 19","..12","..13","..14","..15","..16","..17","..18","..19","..20","..21","..22","..23","..24","..25","..26","..27","..28","..29","..30","..31"
"1","ID","Included","DOB","AGE (months)","SAM","MAM","stunted","Peanut Butter","Nutritmix","Eat both","Peanut Butter","Nutritmix","Eat both","Given in March","Improvement at 4 weeks malnourished","Improvement at 8 weeks malnourished","Malnourished assessment at 8 weeks",NA,NA,NA,NA,"ID","Included","DOB","AGE (months)","SAM","MAM","stunted","Peanut Butter","Nutritmix","Eat both"
"2","Number","Yes=1 No = 0","DD/MM/YY","in months","Y=1 N=0","Y=1 N=0","Y=1 N=0","Eat Yes=1 Eat No= 0","Eat Yes=1 Eat No= 1","Yes=1 No=0","Eat Yes=1 Eat No= 2","Eat Yes=1 Eat No= 3","Yes=1 No=1",NA,"Yes =1 No = 0","Yes =1 No = 1","Yes=1 No=0",NA,NA,"n",NA,"Number","Yes=1 No = 0","DD/MM/YY","in months","Y=1 N=0","Y=1 N=0","Y=1 N=0","Eat Yes=1 Eat No= 0","Eat Yes=1 Eat No= 1","Yes=1 No=0"
"3","5","1","42982","15","0","0","1","0","0","0","0","0","0","1 Nx, 0 PB",NA,NA,NA,NA,"Total patients","66",NA,"216","0","42506","31","0","0","1","1","1","1"
"4","8","1","42991","15","0","1","0","1","1","1","0","0","0","Given nothing","0","0","1",NA,"Nb of patients excluded","9",NA,"338","0","42792","22","0","0","1","1","1","1"
"5","19","1","42842","20","0","0","0","0","1","0","1","1","1",NA,NA,NA,NA,NA,"Nb of patients included","57",NA,"339","0","42059","45","0","0","0","1","1","1"
"6","29","1","42539","30","0","1","1","1","1","1","1","1","1",NA,"0","0","0",NA,"Nb of patients MAM","17",NA,"492","0","42238","40","0","1","1","1","1","1"
"7","30","1","42981","15","0","0","1","0","0","0","1","1","1",NA,NA,NA,NA,NA,"Nb of patients SAM","1",NA,"493","0","43004","14","0","0","1","1","1","1"
"8","36","1","42999","15","0","1","1","1","1","1",NA,NA,NA,NA,"1","1","1",NA,"Nb of patients malnourished","18",NA,"496","0","42622","27","1","0","1","1","1","1"
"9","47","1","42615","27","0","0","1","1","1","1","1","1","1","2 Nx, 2 PB",NA,NA,NA,NA,"Nb of patients stunted","56",NA,"508","0","42670","25","0","0","1","1","1","1"
"10","51","1","42554","29","0","0","1","0","0","0","1","1","1",NA,NA,NA,NA,NA,"Analysis over 63 patients",NA,NA,"542","0","42730","23","0","0","1","1","1","1"
"11","52","1","42554","29","0","0","1","0","0","0","1","1","1",NA,NA,NA,NA,NA,"Nb of patients who don't eat PB","10",NA,"560","0","43263","6","1","0","1","1","1","1"
"12","53","1","42951","16","0","0","1","1","1","1",NA,NA,NA,NA,NA,NA,NA,NA,"Nb of patients who don't eat Nx","14",NA,NA,NA,NA,NA,NA,NA,NA,NA,NA,NA
"13","57","1","42744","23","0","0","1","1","1","1","1","1","1","2 Nx, 2 PB",NA,NA,NA,NA,"Nb of patients who eat neither PB nor NX","9",NA,NA,NA,NA,NA,NA,NA,NA,NA,NA,NA
"14","68","1","42557","31","0","0","1","1","1","1","1","1","1",NA,NA,NA,NA,NA,"Nb of patients who eat both","48",NA,NA,NA,NA,NA,NA,NA,NA,NA,NA,NA
"15","139","1","41659","59","1","0","1","1","1","1","1","1","1",NA,"0","1","1",NA,"Nb of patients <=24 months whon don't eat PB","5",NA,NA,NA,NA,NA,NA,NA,NA,NA,NA,NA
"16","147","1","42476","32","0","0","1","1","1","1",NA,NA,NA,NA,NA,NA,NA,NA,"Nb of patients <=24 months whon don't eat Nx","5",NA,NA,NA,NA,NA,NA,NA,NA,NA,NA,NA
"17","162","1","42577","28","0","0","1","1","1","1","1","1","1",NA,NA,NA,NA,NA,"Nb of patients >24 months who don't eat PB","5",NA,NA,NA,NA,NA,NA,NA,NA,NA,NA,NA
"18","183","1","42545","29","0","0","1","1","0","0","1","1","1",NA,NA,NA,NA,NA,"Nb of patients >24 months whon don't eat Nx","9",NA,NA,NA,NA,NA,NA,NA,NA,NA,NA,NA
"19","208","1","42402","34","0","0","1","1","1","1","1","1","1",NA,NA,NA,NA,NA,"Nb of patients who don't eat PB or Nx stunted","11",NA,NA,NA,NA,NA,NA,NA,NA,NA,NA,NA
"20","224","1","42515","30","0","0","1","1","1","1","1","1","1",NA,NA,NA,NA,NA,"Nb of patients who don't eat PB or Nx malnourished","6",NA,NA,NA,NA,NA,NA,NA,NA,NA,NA,NA
"21","233","1","42478","32","0","0","1","1","1","1",NA,NA,NA,NA,NA,NA,NA,NA,"Nb of malnourished patients who didn't improve at 4 weeks and don't eat one of PB and Nx","5",NA,NA,NA,NA,NA,NA,NA,NA,NA,NA,NA
"22","239","1","42902","18","0","0","1","1","1","1","1","1","1",NA,NA,NA,NA,NA,"Nb of malnourished patients who didn't improve at 8 weeks and don't eat one of PB and Nx",NA,NA,NA,NA,NA,NA,NA,NA,NA,NA,NA,NA
"23","254","1","42624","27","0","1","1","1","0","0","1","1","1",NA,"0","0","1",NA,NA,NA,NA,NA,NA,NA,NA,NA,NA,NA,NA,NA,NA
"24","255","1","42839","20","0","1","0","0","0","0","0","0","0","Given nothing","0","0","0",NA,NA,NA,NA,NA,NA,NA,NA,NA,NA,NA,NA,NA,NA
"25","269","1","42405","34","0","0","1","1","1","1","1","1","1",NA,NA,NA,NA,NA,NA,NA,NA,NA,NA,NA,NA,NA,NA,NA,NA,NA,NA
"26","275","1","43021","13","0","0","1","0","0","0","0","0","0","Give 1 of each",NA,NA,NA,NA,NA,NA,NA,NA,NA,NA,NA,NA,NA,NA,NA,NA,NA
"27","276","1","42870","20","0","0","1","1","1","1","0","0","0","Given nothing",NA,NA,NA,NA,NA,NA,NA,NA,NA,NA,NA,NA,NA,NA,NA,NA,NA
"28","281","1","42355","36","0","0","1","1","1","1",NA,NA,NA,NA,NA,"0","0",NA,NA,NA,NA,NA,NA,NA,NA,NA,NA,NA,NA,NA,NA
"29","284","1","42617","27","0","1","0","0","0","0","0","0","0","Give one flavoured nx","1",NA,NA,NA,NA,NA,NA,NA,NA,NA,NA,NA,NA,NA,NA,NA,NA
"30","293","1","42410","34","0","0","1","1","1","1","1","1","1","2nx 2PB",NA,NA,NA,NA,NA,NA,NA,NA,NA,NA,NA,NA,NA,NA,NA,NA,NA
"31","299","1","42853","20","0","0","1","1","1","1",NA,NA,NA,NA,NA,NA,NA,NA,NA,NA,NA,NA,NA,NA,NA,NA,NA,NA,NA,NA,NA
"32","331","1","42938","17","0","0","1","1","0","0",NA,NA,NA,NA,NA,NA,NA,NA,NA,NA,NA,NA,NA,NA,NA,NA,NA,NA,NA,NA,NA
"33","342","1","42686","25","0","0","1","1","1","1","1","1","1",NA,NA,NA,NA,NA,NA,NA,NA,NA,NA,NA,NA,NA,NA,NA,NA,NA,NA
"34","351","1","43258","6","0","0","1","1","1","1","0","0","0","Given nothing",NA,"0","1",NA,NA,NA,NA,NA,NA,NA,NA,NA,NA,NA,NA,NA,NA
"35","357","1","41943","49","0","1","1","1","1","1","1","1","1",NA,"0","0","1",NA,NA,NA,NA,NA,NA,NA,NA,NA,NA,NA,NA,NA,NA
"36","360","1","41893","51","0","1","1","1","1","1",NA,NA,NA,NA,"0",NA,NA,NA,NA,NA,NA,NA,NA,NA,NA,NA,NA,NA,NA,NA,NA
"37","380","1","43035","13","0","0","1","1","1","1","1","1","1",NA,NA,"0","1",NA,NA,NA,NA,NA,NA,NA,NA,NA,NA,NA,NA,NA,NA
"38","388","1","42644","26","0","1","0","1","0","0","0","0","0","1 Nx 0PB","0","0","1",NA,NA,NA,NA,NA,NA,NA,NA,NA,NA,NA,NA,NA,NA
"39","416","1","42788","33","0","1","1","1","0","0","1","1","1",NA,"0","0","0",NA,NA,NA,NA,NA,NA,NA,NA,NA,NA,NA,NA,NA,NA
"40","433","1","42147","43","0","1","1","0","0","0",NA,NA,NA,NA,"0",NA,NA,NA,NA,NA,NA,NA,NA,NA,NA,NA,NA,NA,NA,NA,NA
"41","453","1","42796","21","0","0","1","1","1","1","0","1","0","1 each, flavoured Nx",NA,NA,NA,NA,NA,NA,NA,NA,NA,NA,NA,NA,NA,NA,NA,NA,NA
"42","455","1","42792","21","0","0","1","1","1","1","1","1","1",NA,NA,NA,NA,NA,NA,NA,NA,NA,NA,NA,NA,NA,NA,NA,NA,NA,NA
"43","464","1","42482","33","0","0","1","1","1","1","1","1","1",NA,NA,NA,NA,NA,NA,NA,NA,NA,NA,NA,NA,NA,NA,NA,NA,NA,NA
"44","465","1","43137","12","0","0","1","1","1","1","1","1","1",NA,NA,NA,NA,NA,NA,NA,NA,NA,NA,NA,NA,NA,NA,NA,NA,NA,NA
"45","466","1","42659","24","0","0","1","1","1","1",NA,NA,NA,NA,NA,NA,NA,NA,NA,NA,NA,NA,NA,NA,NA,NA,NA,NA,NA,NA,NA
"46","467","1","43244","6","0","0","1","1","1","1","1","1","1",NA,NA,NA,NA,NA,NA,NA,NA,NA,NA,NA,NA,NA,NA,NA,NA,NA,NA
"47","473","1","42685","25","0","0","1","1","1","1","1","1","1",NA,NA,"0","0",NA,NA,NA,NA,NA,NA,NA,NA,NA,NA,NA,NA,NA,NA
"48","478","1","42873","19","0","1","1","1","1","1","1","1","1",NA,"0","0","1",NA,NA,NA,NA,NA,NA,NA,NA,NA,NA,NA,NA,NA,NA
"49","495","1","41944","49","0","1","1","1","1","1",NA,NA,NA,NA,"0","0","0",NA,NA,NA,NA,NA,NA,NA,NA,NA,NA,NA,NA,NA,NA
"50","513","1","42502","30","0","1","1","1","1","1","0","1","0","2nx, 1 PB","0","0","1",NA,NA,NA,NA,NA,NA,NA,NA,NA,NA,NA,NA,NA,NA
"51","514","1","42924","17","0","1","1","1","1","1","1","1","1",NA,"0",NA,NA,NA,NA,NA,NA,NA,NA,NA,NA,NA,NA,NA,NA,NA,NA
"52","515","1","42036","35","0","0","1","1","1","1",NA,NA,NA,NA,NA,"0","0",NA,NA,NA,NA,NA,NA,NA,NA,NA,NA,NA,NA,NA,NA
"53","526","1","42170","44","0","1","0","1","1","1",NA,NA,NA,NA,"0","0","1",NA,NA,NA,NA,NA,NA,NA,NA,NA,NA,NA,NA,NA,NA
"54","533","1","42388","34","0","1","1","1","1","1",NA,NA,NA,NA,"0",NA,NA,NA,NA,NA,NA,NA,NA,NA,NA,NA,NA,NA,NA,NA,NA
"55","545","1","42979","15","0","0","1","1","1","1","1","1","1",NA,NA,NA,NA,NA,NA,NA,NA,NA,NA,NA,NA,NA,NA,NA,NA,NA,NA
"56","546","1","43244","6","0","0","1","1","1","1",NA,NA,NA,NA,NA,NA,NA,NA,NA,NA,NA,NA,NA,NA,NA,NA,NA,NA,NA,NA,NA
"57","558","1","43007","14","0","0","1","1","1","1","1","1","1",NA,NA,NA,NA,NA,NA,NA,NA,NA,NA,NA,NA,NA,NA,NA,NA,NA,NA
"58","564","1","43220","7","0","0","1","1","1","1","0","0","0","Given nothing",NA,NA,NA,NA,NA,NA,NA,NA,NA,NA,NA,NA,NA,NA,NA,NA,NA
"59","572","1","41939","49","0","0","0","1","1","1",NA,NA,NA,NA,NA,NA,NA,NA,NA,NA,NA,NA,NA,NA,NA,NA,NA,NA,NA,NA,NA
"60","577","1","43020","14","0","0","1","1","1","1","1","1","1",NA,NA,NA,NA,NA,NA,NA,NA,NA,NA,NA,NA,NA,NA,NA,NA,NA,NA
"61","578","1","42600","28","0","0","1","1","1","1","1","1","1",NA,NA,NA,NA,NA,NA,NA,NA,NA,NA,NA,NA,NA,NA,NA,NA,NA,NA
"62","579","1","42618","27","0","0","1","0","0","0","1","1","1",NA,NA,NA,NA,NA,NA,NA,NA,NA,NA,NA,NA,NA,NA,NA,NA,NA,NA
"63","580","1","43152","10","0","0","1","1","1","1","1","1","1",NA,NA,NA,NA,NA,NA,NA,NA,NA,NA,NA,NA,NA,NA,NA,NA,NA,NA
"64","600","1","42583","30","0","0","1","1","1","1","1","1","1",NA,NA,NA,NA,NA,NA,NA,NA,NA,NA,NA,NA,NA,NA,NA,NA,NA,NA
"65","601","1","43109","13","0","0","1","1","1","1","1","1","1","2 Nx, 2 PB",NA,NA,NA,NA,NA,NA,NA,NA,NA,NA,NA,NA,NA,NA,NA,NA,NA
