"","Colour Key:","Doesn't want to participate","..3","In both group M and S","..5","Excluded for medical reasons","..7","..8","..9","..10","..11","..12","..13","..14","..15","..16","..17","..18","..19","..20","..21","..22","..23","..24","..25","..26","..27","..28","..29","..30","..31","..32","..33","..34","..35","..36","..37"
"1","Demographic Data",NA,NA,NA,NA,NA,NA,"GROWTH MEASUREMENTS",NA,NA,NA,NA,NA,NA,NA,NA,NA,NA,NA,NA,NA,NA,NA,"HISTORY AND DIAGNOSIS",NA,NA,NA,NA,NA,"TREATMENT AND REFERRALS",NA,NA,NA,NA,NA,NA,NA
"2","Date","area","ID","N/FU","DOB","SEX","AGE (months)","BW (g)","PT/T","W0","H0","MUAC0","MUAC colour","WFH0","WAZ0","HAZ0","BMI0","BAZ0","SAM","MAM","Thinness","Underweight","stunted","Diarrhoea3mnts","Vax Stat","R/P","History","dehydration","diagnosis","albendazole","ORS","iron","Vit A","Vit D (60 000 UI one time)","other","Referrals","Comments"
"3","dd/mm/yy","LB","Number","New=0 FU=1","DD/MM/YY","M=1 F=0","in months","Birthweight in grams","Preterm=1 Term=0","Wgt at T0 (00,0kg)","Ht at T0 (000,0CM)","MUAC at T0 (00,0Cm)","G=0 Y=1 R=2","WFH z Score -0,00","WAZ Z score -0,00","HAZ z Score -0,00","BMI if >5 00.0","BAZ if >5 -0.00","Y=1 N=0","Y=1 N=0","Moderate=1 Severe=2","Y=1 N=0","Y=1 N=0","Y=1 N=0","UTD=0 partial=1 NUTD=2","<6 mths=1 >6mths =0","list key findings*","none=0 mild=1 moderate=2severe=3","list*","Y=1 N=0","Y=1 N=0","Y=1 N=0","Y=1 N=0","Y=1 N=0","list other Rx","list referral*","*when listing, attempt to categorise as much as possible e.g. in history, ""cough2weeks, cough<2weeks""etc, in diagnosis again ""diarrhoea, bloody"", in referrals PAEDSOPD, DERMOPD etc"
"4","43455","LB","5","1","42982","1","15",NA,NA,"7.9000000000000004","72.5","13","0","-1.5800000000000001","-2.5","-2.8199999999999998",NA,NA,"0","0","1","1","1","0","2","1","Cold","0","Rhinitis","0","0","1","0","1","0","0",NA
"5","43448","LB","8","1","42991","1","15",NA,NA,"7.5999999999999996","74.5","12.9","0","-2.6600000000000001","-2.7599999999999998","-1.8400000000000001",NA,NA,"0","1","1","1","0","0","1","0","Come for R/P, cough, chestronchi","0","Respiratory tract infection","1","0","1","1","1","Cefadroxyl, ambroxol","0",NA
"6","43475","LB","19","1","42842","1","20",NA,NA,"8.8000000000000007","74.799999999999997","13.5","0","-0.88900000000000001","-2.2799999999999998","-3.5499999999999998",NA,NA,"0","0",NA,"1","0",NA,NA,NA,NA,NA,NA,NA,NA,NA,NA,NA,NA,NA,NA
"7","43456","LB","29","1","42539","1","30",NA,NA,"9","82","13.5","0","-2.4900000000000002","-3.3300000000000001","-2.9399999999999999",NA,NA,"0","1",NA,"1","1",NA,NA,NA,NA,NA,NA,NA,NA,NA,NA,NA,NA,NA,NA
"8","43456","LB","30","1","42981","1","15",NA,NA,"8.5","72.5","13.6","0","-1.6699999999999999","-1.8600000000000001","-2.8500000000000001",NA,NA,"0","0",NA,"0","1",NA,NA,NA,NA,NA,NA,NA,NA,NA,NA,NA,NA,NA,NA
"9","43455","LB","36","1","42999","1","15","2100",NA,"7.5999999999999996","74.599999999999994","14","0","-2.6899999999999999","-2.8599999999999999","-2.0299999999999998",NA,NA,"0","1",NA,"1","1","0","2","1","Cough, chest ronchi","0","Respiratory tract infection","0","0","0","0","1","phenergan","0",NA
"10","43448","LB","47","1","42615","0","27",NA,NA,"9.8000000000000007","80.700000000000003","15","0","-0.65000000000000002","-1.8","-2.3199999999999998",NA,NA,"0","0","1","1","1","0","2","1","Expulsionofworms, cough cold.","0","Worms","1","0","0","0",NA,"Ambroxol","0",NA
"11","43455","LB","51","1","42554","0","29","2100",NA,"9.9000000000000004","81","14.199999999999999","0","-0.60999999999999999","-2.0099999999999998","-2.6699999999999999",NA,NA,"0","0","1","1","1","0","1","0","Cough cold, come for R/P and imunisation followup","0","Rhinitis","1","0","1","1","1","phenergan, vaccines JE + MMR","0","Twins 51/52"
"12","43456","LB","52","1","42554","0","29","2300",NA,"9.5999999999999996","81","14","0","-0.95999999999999996","-2.2799999999999998","-2.6699999999999999",NA,NA,"0","0","1","1","1","0","1","0","Come for immunisation followup","0","immunisation due","1","0","1","1","1","0","0","Twins 51/52"
"13","43456","LB","53","1","42951","0","16",NA,NA,"8.0999999999999996","74.5","12.5","1","-1.8400000000000001","-2.46","-2.4199999999999999",NA,NA,"0","0",NA,"1","1",NA,NA,NA,NA,NA,NA,NA,NA,NA,NA,NA,NA,NA,NA
"14","43456","LB","57","1","42744","1","23",NA,NA,"10.699999999999999","78.5","14","0","0.59999999999999998","-1.03","-2.9100000000000001",NA,NA,"0","0",NA,"0","1",NA,NA,NA,NA,NA,NA,NA,NA,NA,NA,NA,NA,NA,NA
"15","43503","LB","68","0","42557","1","31",NA,NA,"10.9","83.099999999999994","14.5","0","-0.34999999999999998","-1.8100000000000001","-2.7799999999999998",NA,NA,"0","0",NA,"0","1",NA,NA,NA,NA,NA,NA,NA,NA,NA,NA,NA,NA,NA,NA
"16","43455","LB","139","1","41659","0","59",NA,NA,"11.199999999999999","97.799999999999997","14","0","-3.1000000000000001","-3.46","-2.3500000000000001",NA,NA,"1","0","1","1","1","0","2","0","Come for R/P","0","R/P","1","0","1","1","1","0","0",NA
"17","43456","LB","162","1","42577","1","28",NA,NA,"13","83","16.699999999999999","0","1.77","-0.059999999999999998","-2.4199999999999999",NA,NA,"0","0",NA,"0","1",NA,NA,NA,NA,NA,NA,NA,NA,NA,NA,NA,NA,NA,NA
"18","43455","LB","183","1","42545","1","29","2400",NA,"10.199999999999999","81.5","14","0","-0.78000000000000003","-2.25","-3.0499999999999998",NA,NA,"0","0","1","1","1","0","2","0","Come for R/P","0","R/P","1","0","1","1","1","0","0",NA
"19","43456","LB","208","1","42402","1","34",NA,NA,"12.1","87.200000000000003","14.300000000000001","0","-0.12","-0.12","-2.1899999999999999",NA,NA,"0","0",NA,"0","1",NA,NA,NA,NA,NA,NA,NA,NA,NA,NA,NA,NA,NA,NA
"20","43448","LB","224","1","42515","1","30",NA,NA,"10.6","84.599999999999994","15.300000000000001","0","-1.1699999999999999","-2.0099999999999998","-2.1800000000000002",NA,NA,"0","0","1","1","1","0","2","0","Come for R/P, cough","0","R/P","1","0","1","1",NA,"0","0",NA
"21","43456","LB","233","1","42478","1","32",NA,NA,"9.4000000000000004","78.200000000000003","13.9","0","-1.05","-3.1899999999999999","-4.3700000000000001",NA,NA,"0","0",NA,"1","1",NA,NA,NA,NA,NA,NA,NA,NA,NA,NA,NA,NA,NA,"Moved out of liluah baghar"
"22","43456","LB","239","1","42902","1","18",NA,NA,"8.4000000000000004","72.5","13","0","-0.81999999999999995","-2.3999999999999999","-3.6699999999999999",NA,NA,"0","0",NA,"1","1",NA,NA,NA,NA,NA,NA,NA,NA,NA,NA,NA,NA,NA,"mother dignosed with TB in march 19"
"23","43544","LB","245","0","43079","1","15",NA,NA,"8","74","14","0","-1.8600000000000001","-2.3399999999999999","-2.1400000000000001",NA,NA,"0","0",NA,"1","1",NA,NA,NA,NA,NA,NA,NA,NA,NA,NA,NA,NA,NA,NA
"24","43456","LB","254","1","42624","1","27",NA,NA,"8.0999999999999996","77.5","12.199999999999999","1","-2.7799999999999998","-3.8599999999999999","-3.8100000000000001",NA,NA,"0","1",NA,"1","1",NA,NA,NA,NA,NA,NA,NA,NA,NA,NA,NA,NA,NA,NA
"25","43472","LB","255","1","42839","0","20",NA,NA,"8.3000000000000007","79.299999999999997","13.6","0","-2.1000000000000001","-2.2200000000000002","-1.3700000000000001",NA,NA,"0","1",NA,"1","0",NA,NA,NA,NA,NA,NA,NA,NA,NA,NA,NA,NA,NA,NA
"26","43456","LB","269","1","42405","1","34",NA,NA,"10.199999999999999","83","15","0","-0.79000000000000004","-2.27","-2.8599999999999999",NA,NA,"0","0",NA,"1","1",NA,NA,NA,NA,NA,NA,NA,NA,NA,NA,NA,NA,NA,NA
"27","43456","LB","275","1","43021","1","13",NA,NA,"9.4000000000000004","71","15","0","1","-0.51000000000000001","-2.5499999999999998",NA,NA,"0","0",NA,"0","1",NA,NA,NA,NA,NA,NA,NA,NA,NA,NA,NA,NA,NA,NA
"28","43503","LB","276","0","42870","1","20",NA,NA,"9.5","79","13.800000000000001","0","-0.93999999999999995","-1.7","-2.0800000000000001",NA,NA,"0","0",NA,"0","1",NA,NA,NA,NA,NA,NA,NA,NA,NA,NA,NA,NA,NA,NA
"29","43456","LB","284","1","42617","0","27",NA,NA,"8.9000000000000004","82","14.5","0","-2.1099999999999999","-2.6600000000000001","-1.98",NA,NA,"0","1",NA,"1","0",NA,NA,NA,NA,NA,NA,NA,NA,NA,NA,NA,NA,NA,NA
"30","43455","LB","293","1","42410","0","34",NA,NA,"9.1999999999999993","79.5","14","0","-1.1000000000000001","-3.1899999999999999","-3.8500000000000001",NA,NA,"0","0","2","1","1","0","2","1","Cough cold","0","Rhinitis","0","0","1","0","1","phenergan","0",NA
"31","43456","LB","299","1","42853","0","20",NA,NA,"9.9000000000000004","71.5","14.300000000000001","0","1.6799999999999999","-0.56999999999999995","-3.6699999999999999",NA,NA,"0","0",NA,"0","1",NA,NA,NA,NA,NA,NA,NA,NA,NA,NA,NA,NA,NA,"gone to home village in 2/19"
"32","43456","LB","331","1","42938","1","17",NA,NA,"8.6999999999999993","72","14","0","-0.33000000000000002","-1.8899999999999999","-3.5099999999999998",NA,NA,"0","0",NA,"0","1",NA,NA,NA,NA,NA,NA,NA,NA,NA,NA,NA,NA,NA,NA
"33","43462","LB","338","0","42792","1","22",NA,NA,"9.3000000000000007","79.299999999999997","14.300000000000001","0","-1.27","-2.0699999999999998","-2.2999999999999998",NA,NA,"0","0","1","1","1",NA,"2","1","cough cold, h/o convulsions treated (leveteiracetam)","0","Seizure disorder, respratory tract infection","0","0","1","0","1","phenergan","PAEDSOPD","Will receive BB from TPC starting JAN/19."
"34","43456","LB","342","1","42686","1","25",NA,NA,"8.9000000000000004","78","14.300000000000001","0","-1.6899999999999999","-2.8999999999999999","-3.2599999999999998",NA,NA,"0","0",NA,"1","1",NA,NA,NA,NA,NA,NA,NA,NA,NA,NA,NA,NA,NA,NA
"35","43455","LB","351","1","43258","1","6","3200",NA,"7.75","62.200000000000003","15","0","1.9299999999999999","-0.41999999999999998","-2.8599999999999999",NA,NA,"0","0",NA,"0","1","0","1",NA,"Come for immunisation followup","0","immunisation due","0","0","1","0","1","multivitamin","0",NA
"36","43456","LB","357","1","41943","0","49",NA,NA,"10.699999999999999","92.5","13.1","0","-2.5099999999999998","-3.2400000000000002","-2.5699999999999998",NA,NA,"0","1",NA,"1","1",NA,NA,NA,NA,NA,NA,NA,NA,NA,NA,NA,NA,NA,NA
"37","43456","LB","360","1","41893","1","51",NA,NA,"12","95.5","13.800000000000001","0","-2.1299999999999999","-2.7000000000000002","-2.25",NA,NA,"0","1",NA,"1","1",NA,NA,NA,NA,NA,NA,NA,NA,NA,NA,NA,NA,NA,NA
"38","43440","LB","380","1","43035","1","13","3000",NA,"7.75","71","13.5","0","-1.3600000000000001","-2.2599999999999998","-2.5699999999999998",NA,NA,"0","0","1","1","1",NA,"1","1","come for immunization, suspicion of anaemia","0","anaemia suspected","0","0","1","0","1",NA,"Investigation: blood for haemoglobin",NA
"39","43456","LB","388","1","42644","1","26",NA,NA,"9.5999999999999996","84","13","0","-2.2000000000000002","-2.3999999999999999","-1.6699999999999999",NA,NA,"0","1",NA,"1","0",NA,NA,NA,NA,NA,NA,NA,NA,NA,NA,NA,NA,NA,NA
"40","43455","LB","416","1","42788","0","33",NA,NA,"7","74","12.4","0","-2.8700000000000001","-3.8199999999999998","-3.3799999999999999",NA,NA,"0","1",NA,"1","1",NA,NA,NA,NA,NA,NA,NA,NA,NA,NA,"1",NA,NA,"In both groups, referred to hospital 20/3/19"
"41","43472","LB","433","1","42147","0","43",NA,NA,"10.699999999999999","89.599999999999994","13.800000000000001","0","-2.29","-3.0899999999999999","-2.7999999999999998",NA,NA,"0","1",NA,"1","1",NA,NA,NA,NA,NA,NA,NA,NA,NA,NA,NA,NA,NA,NA
"42","43456","LB","453","1","42796","0","21",NA,NA,"9.3000000000000007","76.799999999999997","14","0","-0.20999999999999999","-1.3899999999999999","-2.4199999999999999",NA,NA,"0","0",NA,"0","1",NA,NA,NA,NA,NA,NA,NA,NA,NA,NA,NA,NA,NA,NA
"43","43456","LB","455","1","42792","1","21",NA,NA,"10.1","76","15","0","0.47999999999999998","-1.3100000000000001","-3.3799999999999999",NA,NA,"0","0",NA,"0","1",NA,NA,NA,NA,NA,NA,NA,NA,NA,NA,NA,NA,NA,NA
"44","43475","LB","464","0","42482","1","33",NA,NA,"11.5","84.5","15","0","-0.050000000000000003","-1.51","-2.6299999999999999",NA,NA,"0","0",NA,"0","1",NA,NA,NA,NA,NA,NA,NA,NA,NA,NA,NA,NA,NA,NA
"45","43475","LB","465","0","43137","1","12",NA,NA,"8","69.200000000000003","13.800000000000001","0","-0.35999999999999999","-1.51","-2.3399999999999999",NA,NA,"0","0",NA,"0","1",NA,NA,NA,NA,NA,NA,NA,NA,NA,NA,NA,NA,NA,NA
"46","43456","LB","466","1","42659","0","24",NA,NA,"8.4000000000000004","72.799999999999997","14","0","-0.59999999999999998","-3","-4",NA,NA,"0","0",NA,"1","1",NA,NA,NA,NA,NA,NA,NA,NA,NA,NA,NA,NA,NA,NA
"47","43440","LB","467","1","43244","1","6",NA,NA,"5.5999999999999996","61.799999999999997","13","0","-1.8","-3.2799999999999998","-3.0299999999999998",NA,NA,"0","0",NA,"1","1",NA,NA,NA,NA,NA,NA,NA,NA,NA,NA,NA,NA,NA,NA
"48","43821","LB","473","0","42685","1","25",NA,NA,"9.4000000000000004","79","14.300000000000001","0","-1.23","-2.4300000000000002","-2.9500000000000002",NA,NA,"0","0",NA,"1","1",NA,NA,NA,NA,NA,NA,NA,NA,NA,NA,NA,NA,NA,NA
"49","43468","LB","478","0","42873","1","19",NA,NA,"8.0999999999999996","75.400000000000006","13","0","-2.0899999999999999","-2.9300000000000002","-3",NA,NA,"0","1",NA,"1","1",NA,NA,NA,NA,NA,NA,NA,NA,NA,NA,NA,NA,NA,NA
"50","43456","LB","492","0","42238","1","40",NA,NA,"10.4","90.400000000000006","12.6","0","-2.8700000000000001","-3.04","-2.1499999999999999",NA,NA,"0","1",NA,"1","1",NA,NA,NA,NA,NA,NA,NA,NA,NA,NA,NA,NA,NA,"Chose not to come anymore."
"51","43456","LB","493","0","43004","0","14",NA,NA,"7.2999999999999998","70.400000000000006","12","1","-1.3700000000000001","-2.3100000000000001","-2.6099999999999999",NA,NA,"0","0",NA,"1","1",NA,NA,NA,NA,NA,NA,NA,NA,NA,NA,NA,NA,NA,"Chose not to come anymore."
"52","43456","LB","495","0","41944","1","49",NA,NA,"11.199999999999999","91.5","15.199999999999999","0","-2.1499999999999999","-3.1299999999999999","-3",NA,NA,"0","1",NA,"1","1",NA,NA,NA,NA,NA,NA,NA,NA,NA,NA,NA,NA,NA,NA
"53","43456","LB","496","0","42622","1","27",NA,NA,"7.4000000000000004","81","14","0","-4.5999999999999996","-4.5199999999999996","-2.7799999999999998",NA,NA,"1","0",NA,"1","1",NA,NA,NA,NA,NA,NA,NA,NA,NA,NA,NA,NA,NA,NA
"54","43456","LB","508","0","42670","0","25",NA,NA,"9.6999999999999993","82","14","0","-1.53","-2.2400000000000002","-2.1499999999999999",NA,NA,"0","0",NA,"1","1",NA,NA,NA,NA,NA,NA,NA,NA,NA,NA,NA,NA,NA,"Chose not to come anymore."
"55","43456","LB","513","0","42502","0","30",NA,NA,"8.9000000000000004","80","13.5","0","-2.1499999999999999","-3.52","-3.71",NA,NA,"0","1",NA,"1","1",NA,NA,NA,NA,NA,NA,NA,NA,NA,NA,NA,NA,NA,NA
"56","43456","LB","514","0","42924","1","17",NA,NA,"7.2999999999999998","71","13","0","-2.1200000000000001","-3.52","-4.0800000000000001",NA,NA,"0","1",NA,"1","1",NA,NA,NA,NA,NA,NA,NA,NA,NA,NA,NA,NA,NA,NA
"57","43472","LB","515","0","42036","1","35",NA,NA,"11.300000000000001","92.099999999999994","14","0","-2.1699999999999999","-2.8999999999999999","-2.5800000000000001",NA,NA,"0","0",NA,"1","1",NA,NA,NA,NA,NA,NA,NA,NA,NA,NA,NA,NA,NA,"Chose not to come anymore."
"58","43511","LB","526","0","42170","1","44",NA,NA,"11","93.400000000000006","13.699999999999999","0","-2","-2.3799999999999999","-1.8999999999999999",NA,NA,"0","1",NA,"1","0",NA,NA,NA,NA,NA,NA,NA,NA,NA,NA,NA,NA,NA,"gone to home village feb19"
"59","43440","LB","533","1","42388","0","34","2500",NA,"9.5999999999999996","86","14","0","-2.25","-2.8599999999999999","-2.1499999999999999",NA,NA,"0","1","1","1","1",NA,"0","1","screening visit","0","sunting MAM","0","0","0","0","1","already on iron drops","Investigation: blood for haemoglobin","Had vitamin D 60 000UI one time at 2 weeks followup; father died in march 2019 (low attendance)"
"60","43440","LB","542","1","42730","0","23",NA,NA,"9","78","14.4","0","-0.84999999999999998","-1.9299999999999999","-2.4500000000000002",NA,NA,"0","0",NA,"0","1",NA,"0","1","itching","0","Scabies, Stunted","1","0","0","0",NA,"has iron, PERMETHRIN, investigation blood for haemoglobin","HE Scabies","Chose not to come anymore."
"61","43440","LB","545","1","42979","0","15","2600",NA,"8.5999999999999996","71","14","0","0.29999999999999999","-0.93000000000000005","-2.4300000000000002",NA,NA,"0","0",NA,"0","1",NA,"0",NA,"Come for RP (routine prophylaxy)","0","Scabies, Stunted","1","0","1","1",NA,"PERMETHRIN","Health educ (HE) scabies",NA
"62","43440","LB","558","0","43007","0","14","3250",NA,"7.2999999999999998","68.599999999999994","14","0","-0.83999999999999997","-2.1499999999999999","-2.98",NA,NA,"0","0",NA,"1","1",NA,"1",NA,"come for RP","0","Stunted","1","0","1","1",NA,NA,"Govt hospital for immunization, investigation blood for Hb",NA
"63","43448","LB","560","0","43263","0","6","800",NA,"3.5","52.5","9.1999999999999993","2","-1.25","-5.4900000000000002","-5.8799999999999999",NA,NA,"1","0","2","1","1","0",NA,"0","fever, swelling of head","1","Hydrocephalous, fever, severe clinical malnutrition and dehydration","0","0","1","0","1","Paracetamol? MULTIVITAMINE","Was refered to hospital the week before that 6/12 (but measures were not taken, so date of inclusion is 14/12).","Will receive BB from TPC starting JAN/19."
"64","43448","LB","564","0","43220","1","7","2550",NA,"6.75","63.399999999999999","13.5","0","-0.27000000000000002","-2.0499999999999998","-2.9199999999999999",NA,NA,"0","0","1","1","1","0","1","1","come for immunization follow up","0","immunisation due","0","0","1","0","1","VaccinePV+OPV","0",NA
"65","43456","LB","577","0","43020","1","14",NA,NA,"8.4000000000000004","72.5","12.699999999999999","0","-0.95999999999999996","-1.8400000000000001","-2.27",NA,NA,"0","0",NA,"0","1",NA,NA,NA,NA,NA,NA,NA,NA,NA,NA,NA,NA,NA,NA
"66","43456","LB","578","0","42600","0","28",NA,NA,"9.9000000000000004","77.5","14.199999999999999","0","0.17999999999999999","-1.8999999999999999","-3.52",NA,NA,"0","0",NA,"0","1",NA,NA,NA,NA,NA,NA,NA,NA,NA,NA,NA,NA,NA,NA
"67","43456","LB","579","0","42618","0","27",NA,NA,"10.800000000000001","81.799999999999997","15.300000000000001","0","0.17999999999999999","-1","-2.0299999999999998",NA,NA,"0","0",NA,"0","1",NA,NA,NA,NA,NA,NA,NA,NA,NA,NA,NA,NA,NA,NA
"68","43455","LB","580","0","43152","1","10",NA,NA,"7.7999999999999998","65.5","14","0","0.66000000000000003","-1.46","-3.3799999999999999",NA,NA,"0","0",NA,"0","1","0","2","1","come for nutrition screening","0","stunted","0","0","1","0","1","0","0",NA
"69","43511","LB","600","0","42583","0","30",NA,NA,"9.9000000000000004","82.900000000000006","14.6","0","-1.0800000000000001","-2.1200000000000001","-2.29",NA,NA,"0","0",NA,"1","1",NA,NA,NA,NA,NA,NA,NA,NA,NA,NA,NA,NA,NA,NA
"70","43511","LB","601","0","43109","0","13",NA,NA,"6.7000000000000002","69","13","0","-1.96","-2.6899999999999999","-2.4500000000000002",NA,NA,"0","0",NA,"1","1",NA,NA,NA,NA,NA,NA,NA,NA,NA,NA,NA,NA,NA,NA
