[grammar (info)] Line 153: 
Production Rules:
   (precedences (shown between parentheses) were set by %prec;
    are equal to the precedence of the rules' 1st terminal tokens;
    or (if not shown) are equal to the default (max) precedence)
1: startrule ->  sheets checkSheet rules
2: checkSheet ->  <empty>
3: endSheet ('\x0a') ->  '\x0a'
4: sheetNumber (NUMBER) ->  NUMBER
5: sheetSpec (SHEET) ->  SHEET sheetNumber ':' IDENT number ',' IDENT number endSheet
6: sheets ->  sheets sheetSpec
7: sheets ->  sheetSpec
8: type (TYPE) ->  TYPE
9: number (NUMBER) ->  NUMBER
10: ident (IDENT) ->  IDENT
11: spssVar ->  ident number
12: xlsSpec (':') ->  number ':' number
13: xlsSpecs (',') ->  xlsSpecs ',' xlsSpec
14: xlsSpecs ->  xlsSpec
15: numberText (NUMBER) ->  NUMBER
16: colonLabel (':') ->  ':'
17: label (LABEL) ->  LABEL
18: association ->  numberText colonLabel label
19: associationList (',') ->  associationList ',' association
20: associationList ->  association
21: conversions ('[') ->  '[' associationList ']'
22: optConversions ->  <empty>
23: optConversions ->  conversions
24: rules ->  rules line
25: rules ->  line
26: line ('\x0a') ->  '\x0a'
27: line ->  spec
28: endLine ('\x0a') ->  '\x0a'
29: spec ->  spssVar type xlsSpecs optConversions endLine
30: spec (errTok_) ->  errTok_
31: startrule_$ ->  startrule


Symbolic Terminal tokens:
       error
       EOF
   270: IDENT
   271: NUMBER
   272: TYPE
   273: SHEET
   274: LABEL
    10: '\x0a'
    58: ':'
    44: ','
    91: '['
    93: ']'


Grammar States: 

State 0:
31: startrule_$ ->  . startrule 
  0:   On startrule to state 1
  1:   On sheets to state 2
  2:   On sheetSpec to state 3
  3:   On SHEET to state 4


State 1:
31: startrule_$ -> startrule  . 


State 2:
1: startrule -> sheets  . checkSheet rules 
6: sheets -> sheets  . sheetSpec 
  0:   On checkSheet to state 5
  1:   On sheetSpec to state 6
  2:   On SHEET to state 4
  Reduce by 2: checkSheet ->  . 


State 3:
7: sheets -> sheetSpec  . 
  Reduce by 7: sheets -> sheetSpec  . 


State 4:
5: sheetSpec -> SHEET  . sheetNumber ':' IDENT number ',' IDENT number endSheet 
  0:   On sheetNumber to state 7
  1:   On NUMBER to state 8


State 5:
1: startrule -> sheets checkSheet  . rules 
  0:   On rules to state 9
  1:   On line to state 10
  2:   On '\x0a' to state 11
  3:   On spec to state 12
  4:   On spssVar to state 13
  5:   On errTok_ to state 14
  6:   On ident to state 15
  7:   On IDENT to state 16


State 6:
6: sheets -> sheets sheetSpec  . 
  Reduce by 6: sheets -> sheets sheetSpec  . 


State 7:
5: sheetSpec -> SHEET sheetNumber  . ':' IDENT number ',' IDENT number endSheet 
  0:   On ':' to state 17


State 8:
4: sheetNumber -> NUMBER  . 
  Reduce by 4: sheetNumber -> NUMBER  . 


State 9:
1: startrule -> sheets checkSheet rules  . 
24: rules -> rules  . line 
  0:   On line to state 18
  1:   On '\x0a' to state 11
  2:   On spec to state 12
  3:   On spssVar to state 13
  4:   On errTok_ to state 14
  5:   On ident to state 15
  6:   On IDENT to state 16
  Reduce by 1: startrule -> sheets checkSheet rules  . 


State 10:
25: rules -> line  . 
  Reduce by 25: rules -> line  . 


State 11:
26: line -> '\x0a'  . 
  Reduce by 26: line -> '\x0a'  . 


State 12:
27: line -> spec  . 
  Reduce by 27: line -> spec  . 


State 13:
29: spec -> spssVar  . type xlsSpecs optConversions endLine 
  0:   On type to state 19
  1:   On TYPE to state 20


State 14:
30: spec -> errTok_  . 
  Reduce by 30: spec -> errTok_  . 


State 15:
11: spssVar -> ident  . number 
  0:   On number to state 21
  1:   On NUMBER to state 22


State 16:
10: ident -> IDENT  . 
  Reduce by 10: ident -> IDENT  . 


State 17:
5: sheetSpec -> SHEET sheetNumber ':'  . IDENT number ',' IDENT number endSheet 
  0:   On IDENT to state 23


State 18:
24: rules -> rules line  . 
  Reduce by 24: rules -> rules line  . 


State 19:
29: spec -> spssVar type  . xlsSpecs optConversions endLine 
  0:   On xlsSpecs to state 24
  1:   On xlsSpec to state 25
  2:   On number to state 26
  3:   On NUMBER to state 22


State 20:
8: type -> TYPE  . 
  Reduce by 8: type -> TYPE  . 


State 21:
11: spssVar -> ident number  . 
  Reduce by 11: spssVar -> ident number  . 


State 22:
9: number -> NUMBER  . 
  Reduce by 9: number -> NUMBER  . 


State 23:
5: sheetSpec -> SHEET sheetNumber ':' IDENT  . number ',' IDENT number endSheet 
  0:   On number to state 27
  1:   On NUMBER to state 22


State 24:
29: spec -> spssVar type xlsSpecs  . optConversions endLine 
13: xlsSpecs -> xlsSpecs  . ',' xlsSpec 
  0:   On optConversions to state 28
  1:   On ',' to state 29
  2:   On conversions to state 30
  3:   On '[' to state 31
  Reduce by 22: optConversions ->  . 


State 25:
14: xlsSpecs -> xlsSpec  . 
  Reduce by 14: xlsSpecs -> xlsSpec  . 


State 26:
12: xlsSpec -> number  . ':' number 
  0:   On ':' to state 32


State 27:
5: sheetSpec -> SHEET sheetNumber ':' IDENT number  . ',' IDENT number endSheet 
  0:   On ',' to state 33


State 28:
29: spec -> spssVar type xlsSpecs optConversions  . endLine 
  0:   On endLine to state 34
  1:   On '\x0a' to state 35


State 29:
13: xlsSpecs -> xlsSpecs ','  . xlsSpec 
  0:   On xlsSpec to state 36
  1:   On number to state 26
  2:   On NUMBER to state 22


State 30:
23: optConversions -> conversions  . 
  Reduce by 23: optConversions -> conversions  . 


State 31:
21: conversions -> '['  . associationList ']' 
  0:   On associationList to state 37
  1:   On association to state 38
  2:   On numberText to state 39
  3:   On NUMBER to state 40


State 32:
12: xlsSpec -> number ':'  . number 
  0:   On number to state 41
  1:   On NUMBER to state 22


State 33:
5: sheetSpec -> SHEET sheetNumber ':' IDENT number ','  . IDENT number endSheet 
  0:   On IDENT to state 42


State 34:
29: spec -> spssVar type xlsSpecs optConversions endLine  . 
  Reduce by 29: spec -> spssVar type xlsSpecs optConversions endLine  . 


State 35:
28: endLine -> '\x0a'  . 
  Reduce by 28: endLine -> '\x0a'  . 


State 36:
13: xlsSpecs -> xlsSpecs ',' xlsSpec  . 
  Reduce by 13: xlsSpecs -> xlsSpecs ',' xlsSpec  . 


State 37:
21: conversions -> '[' associationList  . ']' 
19: associationList -> associationList  . ',' association 
  0:   On ']' to state 43
  1:   On ',' to state 44


State 38:
20: associationList -> association  . 
  Reduce by 20: associationList -> association  . 


State 39:
18: association -> numberText  . colonLabel label 
  0:   On colonLabel to state 45
  1:   On ':' to state 46


State 40:
15: numberText -> NUMBER  . 
  Reduce by 15: numberText -> NUMBER  . 


State 41:
12: xlsSpec -> number ':' number  . 
  Reduce by 12: xlsSpec -> number ':' number  . 


State 42:
5: sheetSpec -> SHEET sheetNumber ':' IDENT number ',' IDENT  . number endSheet 
  0:   On number to state 47
  1:   On NUMBER to state 22


State 43:
21: conversions -> '[' associationList ']'  . 
  Reduce by 21: conversions -> '[' associationList ']'  . 


State 44:
19: associationList -> associationList ','  . association 
  0:   On association to state 48
  1:   On numberText to state 39
  2:   On NUMBER to state 40


State 45:
18: association -> numberText colonLabel  . label 
  0:   On label to state 49
  1:   On LABEL to state 50


State 46:
16: colonLabel -> ':'  . 
  Reduce by 16: colonLabel -> ':'  . 


State 47:
5: sheetSpec -> SHEET sheetNumber ':' IDENT number ',' IDENT number  . endSheet 
  0:   On endSheet to state 51
  1:   On '\x0a' to state 52


State 48:
19: associationList -> associationList ',' association  . 
  Reduce by 19: associationList -> associationList ',' association  . 


State 49:
18: association -> numberText colonLabel label  . 
  Reduce by 18: association -> numberText colonLabel label  . 


State 50:
17: label -> LABEL  . 
  Reduce by 17: label -> LABEL  . 


State 51:
5: sheetSpec -> SHEET sheetNumber ':' IDENT number ',' IDENT number endSheet  . 
  Reduce by 5: sheetSpec -> SHEET sheetNumber ':' IDENT number ',' IDENT number endSheet  . 


State 52:
3: endSheet -> '\x0a'  . 
  Reduce by 3: endSheet -> '\x0a'  . 



